ADAMS,Adams
ADAMS HLL,Adams Hill
ALKEK,Alkek
ALPINE,Alpine Elementary
ALVAREZ,Alvarez
MIRELES,Andy Mireles
ARLON,Arlon Seay
ARNOLD,Arnold
ATASCOSA,Atascosa
ATHENS,Athens
AUSTIN,Austin
BALL,Ball
BANDERA,Bandera
BARKLEY,Barkley
BARRERA,Barrera
BASKIN,Baskin
BATESVILLE,Batesville
BEACON HLL,Beacon Hill
BEAR,Beard
BEHLAU ELE,Behlau Elementary
BELLAIRE,Bellaire
BENAVIDEZ,Benavidez
BIG CNTRY,Big Country
BIG WELLS,Big Wells
BILL BROWN,Bill Brown
BLANCO,Blanco
BLATTMAN,Blattman
BLOCK HSE,Block House Creek
BOB HOPE,Bob Hope
BOB LEWIS,Bob Lewis Elementary
BOBBYE BEHLAU,Bobbye Behlau
BOERNE,Boerne
BONHAM,Bonham
BOONE,Boone
BOWDEN,Bowden
BOWEN,Bowen
BOWIE,Bowie
BRACKENRDG,Brackenridge J. T.
BRAUCHLE,Brauchle
BRAUN,Braun
BRAUN ST,Braun Station
BREWER,Brewer
BRISCOE,Briscoe
BROWN,Brown
BULVERDE,Bulverde
BULVERDECR,Bulverde Creek
BURKE,Burke Elementary
BURLESON,Burleson
BURNET,Burnet
CHILTON ELEMENTARY,CHILTON ELEMENTARY
CIBOLOCREEK,CIBOLO CREEK
CRYSTAL CITY ELEM ZAVALA CTY,CRYSTAL CITY ELEMENTARY ZAVALA COUNTY
CABLE,Cable
CALL DIST,Call District
CAMBRIDGE,Cambridge
CAMELOT,Camelot
CAMERON,Cameron
CANDLEWOOD,Candlewood
CANYON LK,Canyon Lake
CANYONRID,Canyon Ridge Elem
CARLSCHUR,Carl Schurz Ele
CARLOS COO,Carlos Coon Ele
CARLSON,Carlson
CARNAHAN,Carnahan
CARRILLO,Carrillo
CARROLL B,Carroll Bell
CARROLL H,Carroll Henry
CARSON,Carson
CARVAJAL,Carvajal
CARVALJAL,Carvaljal
CASTLE HLL,Castle Hills
CASTROVILL,Castroville Elementary
CENIZO,Cenizo
CENIZO PK,Cenizo Park
CENTER PT,Center Point
CHANNEL,Channel
KUENTZ,Charles Kuentz
CHARLOTTE,Charlotte
CHRISTIAN,Christian Evers
CIAVARRA,Ciavarra
CIBOLOGREEN,Cibolo Green
CLEAR SPRG,Clear Spring
CODY ED,Cody Ed
COKER,Coker
COLBY,Colby
COLLIER,Collier
COLLINS GD,Collins Garden
COLONIAL H,Colonial Hills
COLONIES N,Colonies North
COLUMBIA H,Columbia Heights
COMAL,Comal
COMFORT,Comfort
CONVERSE,Converse
CORONADO E,Coronado Escobar
CORONADO V,Coronado Village
COTTON,Cotton
COTULLA,Cotulla
COUNTY LINE,County Line
CREEKWOOD,Creekwood Park
CRESTVIEW,Crestview
CROCKETT,Crockett
CURINGTON,Curington
DHANIS,DHanis
DRIPPING SPRNGS,DRIPPING SPRINGS HAYS CTY
DE ZAVALA,De Zavala
DEL RIO,Del Rio
DELLVIEW,Dellview
DERRY,Derry
DEVINE,Devine
DEZAVALA,Dezavala
DILLEY,Dilley
DIVIDE,Divide
DOUGLASS,Douglass
DRIGGERS,Driggers
E CENTRAL,East Central
E TERRELL,East Terrell Hills Ele
ED FRANZ,Ed Franz
LIECK,Edmund Lieck
EL DORADO,El Dorado
ELEM,Elementary School
ELM CREEK,Elm Creek
ELOLF,Elolf
ELROD JIM,Elrod Jimmy
EMMA FREY,Emma Frey
ENCINO,Encino
ENCINO PK,Encino Park
ERSKINE,Erskine
ESCOBAR,Escobar
ESID,Esid
ESPARZA G,Esparza Gregorio
EVELYNSRCARB,Evelyn Scarborough
EVERS,Evers
FLOURBLUFF,FLOUR BLUFF
FABRA,Fabra
FAIR OAKS,Fair Oaks Ranch
FALLCITY,Fall City
FENWICK,Fenwick
FERNANDEZ,Fernandez
FISHER,Fisher
FIVE PAL,Five Pal
FIVE PALMS,Five Palms
FLANDERS,Flanders
FLORESVILL,Floresville
FORBES,Forbes
NORFORELEM,Forester
FOSTER,Foster
FOX RUN,Fox Run
FRANK MADLA,Frank Madla
FRANKLIN,Franklin
FRANZ,Franz
FREDERICKS,Fredericksburg
FREEDOM,Freedom Elementary
FREIHEIT,Freiheit
FREIHERT,Freihert
FREY,Frey
GATESACA,GATES ACADEMY
GALEN E,Galen Eloff
GALLARDO,Gallardo
GALM,Galm
GARDENRIDGE,Garden Ridge
GARDENDALE,Gardendale
GARRIGA,Garriga
GATES,Gates
GEORGEWEST,George West
GILBERT,Gilbert
GILLETTE,Gillette
GLASS C,Glass Colby
GLENN J,Glenn John
GLENOAKS,Glenoaks
GONZALES,Gonzales
GOODWIN FRAZIER,Goodwin Frazier
GRAEBNER,Graebner
GREEN,Green
GREEN VAL,Green Valley
GUERRA,Guerra
HK WILLIAM,H. K. Williams
HOFFMANN,HOFFMANN
HARDY OAK,Hardy Oak
HARMONY,Harmony
HARMONY HL,Harmony Hills
HATCHETELE,Hatchet Ele
HAWTHORNE,Hawthorne
HELOTES,Helotes
HENDERSON,Henderson
HENRY B.,Henry B. Gonzalez
HERFF,Herff
HIDDEN CV,Hidden Cove
HIDDEN FOR,Hidden Forest
HIGHLAND F,Highland Forest
HIGHLAND H,Highland Hills
HIGHLAND P,Highland Park
HILL CNTRY,Hill Country
HILLCREST,Hillcrest
HIRSCH,Hirsch
HOELSCHER,Hoelscher
HOFFMAN,Hoffman Lane
HONDO,Hondo
HOPKINS,Hopkins Ele
HOPPERZT,Hopperzt
HOUSMAN,Housman
HOWEARD,Howard
HOWSMAN,Howsman
HUDSPECH,Hudspech
HUEBNER,Huebner
HULL MARY,Hull Mary
HUNT,Hunt
HUPPERTZ,Huppertz
HUTCHINS,Hutchins
INDIAN CRK,Indian Creek
INDIAN SPRINGS,Indian Springs
INGRAM,Ingram
JAMES L MASTERS,JAMES L MASTERS ELEMENTARY
JACKSON K,Jackson Keller
JAPHET,Japhet
JEFFERSON,Jefferson
ALLEN,Jerry Allen
MARTIN,Jim G Martin
SIPPEL,John A Sippel
JOHNBARNS,John Barns
JOHNCFREN,John C French Elementary
JOHNCFRENC,John C French Elementary
JOHN GLENN,John Glenn Jr.
JOHNSON,Johnson City
JOHNSON RANCH,Johnson Ranch
JOURDANTON,Jourdanton
JULNEWTAUE,Julie Newton Aue
JUNCTION,Junction
KARNES CTY,Karnes City Elem.
KELLY,Kelly
KENDALL,Kendall Elementary
KENEDY,Kenedy
KERRVILLE,Kerrville
KENDRRNCHELEM,Kinder Ranch Elementary
KINDRED,Kindred
KING,King
KIRBY,Kirby
KLEINRD,Klein Road
KNOWLTON,Knowlton
KNOX,Knox
KOENNECKEE,Koenneckee
KRIEWALD R,Kriewald Road
KRUEGER,Krueger
LITTLE BAY PORT ARANSAS,LITTLE BAY PORT ARANSAS
LA SOYA,La Soya
LA VERNIA,La Vernia
LACKLAND,Lackland City (Allen)
LACOSTE,Lacoste Elementary
LAKEHILLS,Lakehills Elementary
LAMAR,Lamar
LARKSPUR,Larkspur
LAS LOMAS,Las Lomas
LAS PALMAS,Las Palmas
LEAKEY,Leakey
LEON SPRG,Leon Springs
LEON VAL,Leon Valley
LEWIS,Lewis
LINTON DOL,Linton Dolores
LIVE OAK,Live Oak
LLANO,Llano
LOCKE HLL,Locke Hill
LOCKHILL,Lockhill
LOMA PARK,Loma Park
LONE STAR,Lone Star Elementary
LONGS CRK,Longs Creek
LOS REYES,Los Reyes
LULING,Luling
LYNCH,Lynch
LYNDON B.,Lyndon B. Johnson
LYTLE,Lytle
MILLERACA,MILLER ACADEMY
MADISON,Madison
NARBLE FLL,Marble Falls Elem
MARGIL,Margil
MARION,Marion
MARTHAMEA,Martha Mead
MARY B,Mary B
MARY LOU,Mary Lou Hartman
MARY MIC,Mary Michael
MASON,Mason Elem
MATHEWS,Mathews Elementary
MATHIS,Mathis
MAVERIC,Maverick
MCDERMOTT,Mc Dermott
MCQUEENEY,Mcqueeney
MEAD,Mead
MEADOW VIL,Meadow Village
MEDINA,Medina
MEDINA VAL,Medina Valley
MEDIO CREEK,Medio Creek
MEMORIAL,Memorial
MEYER,Meyer Elementary
MICHAEL,Michael
MILLER,Miller
MILLERS PT,Millers Point
MISSNACADMY,Mission Academy
MONROE M,Monroe May
MONTGOMERY,Montgomery
MORNINGSIDE,Morningside
MORRILL,Morrill
MOUNTAIN V,Mountain Valley
MURNIN,Murnin
MYERS VIR,Myers Virginia
NATALIA,Natalia
NAVARRO,Navarro Elementary
NEAL,Neal
NEIL ARM,Neil Armstrong
NELSON,Nelson
NEW BRAUN,New Braunfel
NICHOLS,Nichols
NIMITZ,Nimitz
NIXON,Nixon Elementary
NORTH,North
NORTH ELEM FLORESVILLE,North Elementary Floresville
NORTHERN H,Northern Hills
NORTHWEST,Northwest Crossing
NORTHWWOD,Northwood
NA,Not Applicable
OAK CREEK,Oak Creek
OAK GROVE,Oak Grove
OAK HILLS,Oak Hills Terrace
OAK MEADOW,Oak Meadow
OAKMEAD,Oakmead
OGDEN,Ogden
OLIVARES,Olivares Antonio
OLMOS,Olmos
OLSEN,Olsen
OLYMPIA,Olympia
OTT,Ott
PEGGYCARNAHAN,PEGGYCARNAHAN
PACKSADDLE,Packsaddle Elementry
PALO ALTO,Palo Alto
PARK VIL,Park Village
PASCHALL,Paschal
PASSMORE,Passmore
PATLAN,Patlan
PATRICK,Patrick
PEARCE W,Pearce William
PEARSALL,Pearsall
PECAN VAL,Pecan Valley
PERALES,Perales
PERSHING,Pershing
PFEIFFER,Pfeiffer
PLEASANTON,Pleasanton
POTEET,Poteet
POTH,Poth
POTRANCO,Potranco
POWELL L,Powell Lawrence
PRICE,Price
RABA,Raba
RAHE,Rahe Primary
RAIL RIDGE,Rail Ridge Elementary
LANGLEY,Ralph Langley
RAYBURN,Rayburn
REBECCA CR,Rebecca Creek
REDLAND,Redland Oaks
REGENCY,Regency Place
RHODES,Rhodes
RIDGEVIEW,Ridgeview
RIVERSIDE,Riverside Park
ROAN FOR,Roan Forest
ROAN OAK,Roan Oak
ROBBELEM,Robb Elementary
RODRIGUEZ,Rodriguez
ROGERS,Rogers
ROGERS E,Rogers E Sides
ROLLINGMEADOWS,Rolling Meadows
ROOSEVELT,Roosevelt
ROSE GRDN,Rose Garden
ROY BEN,Roy Benavidez
ROYCISNEROS,Roy Cisneros
ROYAL RDG,Royal Ridge
ROYALGATE,Royalgate
RUIZ,Ruiz
STARTZVILL,STARTZVILLE
SABINAL,Sabinal
SAISD,Saisd
SALINAS,Salinas
SANDERSON,Sanderson Elem.
MCANDREW,Sara B McAndrew
SCHEH,Scheh
SCHENCK,Schenck
SCHERTZ,Schertz
SCHULENBUR,Schulenburg
SCHULZE,Schulze
SCHOBEE,Scobee
SCUDDER,Scudder
SECHT,Secht
SEELE,Seele
SEELY,Seely
SEGUIN,Seguin
SERNA,Serna
SHENANDOAH,Shenandoah
SINCLAIR,Sinclair
SKY HARBOR,Sky Harbor
SMITH,Smith
SMITHSON,Smithson Valley
SOMERSET,Somerset
SOUTH ELEM FLORESVILLE,South Elementary Floresville
SOUTHSIDE,Southside Heritage
SOUTHWEST,Southwest
SPECHT,Specht
SPICEWOOD,Spicewood Park
SPRING MDW,Spring Meadows
STAFFORD,Stafford
STAHL,Stahl
STARKY,Starky
STEELE,Steele
STEUBING,Steubing
STEUBINGRA,Steubing Ranch
STEWART,Stewart
STOCKDALE,Stockdale
STONE OAK,Stone Oak
STONEWALL,Stonewall Elementary
STORM,Storm
SUMMERLIN,Summerlin
SUN VALLEY,Sun Valley
TALLY,Tally
TERRI CORN,Terri CornerS
THORNTON,Thornton
THOUSAND O,Thousand Oaks
THREE RVR,Three Rivers
THUNDERBIR,Thunderbird Hills
TLDNELEM,Tilden Elementary
TIMBERWILD,Timberwilde
TMBRWDPRK,Timberwood Park
TOM DAN,Tom Daniels
TRAVIS,Travis
TRIVINO,Trivino
TUSCANY,Tuscany Heights
TYNAN,Tynan
UTOPIA,Utopia
UVALDE,Uvalde
VALLEY HI,Valley Hi
VESTAL,Vestal
VILLARREAL,Villarreal
VINEYARD RANCH,Vineyard Ranch
VIRGINIA,Virgina Meyers
VOGEL,Vogel
VOGELELEM,Vogel Elementary
WALNUT SPRGS ELEM SCHOOL,Walnut Springs Elementary School
WALZEM,Walzem
WANKE,Wanke
WARD,Ward
WASHINGTON,Washington
WATTS,Watts
WEINERT,Weinert
WEST AVE,West Avenue
WESTHOFF,Westhoff Elementary
WESTWOOD,Westwood Terrace
WETMORE,Wetmore Elementary
WHITE,White
WIEDERSTEI,Wiederstein
WILDERNESS,Wilderness Oak Elementary
WILSHIRE,Wilshire
WILSON,Wilson
WINDCREST,Windcrest
WINSTON,Winston
WOODLAND,Wood Land Ele
WOODLAKE,Woodlake
WOODLAWN,Woodlawn
WOODLAWN H,Woodlawn Hills
WOODRIDGE,Woodridge
WOODSTONE,Woodstone
WRIGHT,Wright
YORKTOWNEL,Yorktown Elementary
