ABRAHAM K,Abraham Kazen
ALAMO HGT,Alamo Heights
ALAN B,Alan B. Shepard
ALAN D,Alan D Shepard
ALPINE,Alpine
ARLEN CA,Arlen CA
ARLON S,Arlon Seay
ARMANDO,Armando
ATASCOSA,Atascosa
BANDERA,Bandera
BARBARA B,Barbara Bush
BARNESJIM,"Barnes, Jim"
BATESVILLE,Batesville
BENEVIDES,Benevides
BIG WELLS,Big Wells
BILL BROWN,Bill Brown
BLANCO,Blanco
BOERNE N,Boerne Middle N
BOERNE S,Boerne Middle S
BRADLEY,Bradley
BRENTWOOD,Brentwood
BRIESEMIES,Briesemiester
BRUNDETT,Brundett
BULVERDE,Bulverde
BURNET,Burnet
CHILTON MIDDLE SCHOOL,CHILTON MIDDLE SCHOOL
CRYSTAL CITY MIDDLE SCHL ZAVALA CTY,CRYSTAL CITY MIDDLE SCHOOL  ZAVALA COUNTY
CALL DIST,Call District
CANYON,Canyon
CARRIZOSPR,Carrizo Springs
CENTER PT,Center Point
CHARLOTTE,Charlotte
CHRISTIAN,Christian Ev
CHURCHHILL,Church Hill
COMAL,Comal
COMFORT,Comfort
CONNALLY,Connally
CONNELL,Connell
CONNLEY,Connley
CONTINENTA,Continental
CONVERSE,Converse
COOPER,Cooper
CORBETT,Corbett
COTULLA,Cotulla
CREEKWOOD,Creekwood Park
CUEROINTER,Cuero Intermediate
CUEROJRHI,Cuero Junior High
DHANIS,DHanis
DRIPPING SPRNGS MIDDLE,DRIPPING SPRINGS Middle HAYS CTY
DAVIS,Davis
DEL RIO,Del Rio
DEVINE,Devine
DILLEY,Dilley
DOBIE J,Dobie J. Frank
DOLPH BRISCOE,Dolph Briscoe
DORIS M,Doris Miller
DRISCOLL,Driscoll
DWIGHT,Dwight
E CENTRAL,East Central
EISENHOWER,Eisenhower
SCHLATHER,Elaine Schlather
EMERSON,Emerson
ESID,Esid
FLOURBLUFF,FLOUR BLUFF
FOLKS,FOLKS
FALLCITY,Fall City
FLORESVILL,Floresville
FRAZIER,Frazier
FREDERICKS,Fredericksburg
GATESACA,GATES ACADEMY
GARNER,Garner
GEORGEWEST,George West
GONZALES,Gonzales
GUS GARCIA,Gus Garcia
HENDERSON ES,HENDERSON ELEMENTARY
HARLANDALE,Harlandale
HARRIS,Harris
HECTOR GARCIA,Hector Garcia
HELOTES,Helotes Mid
HERITAGE,Heritage
HOBBY WILL,Hobby William P.
HONDO,Hondo
HUDSPECH,Hudspech
INGRAM,Ingram
IRVING,Irving
JACKSON,Jackson
JEFFERSON,Jefferson Jr High
JIMBARNES,Jim Barnes
JOHN B,John B. Connally
JOHNSON,Johnson City
JONES,Jones
JONES AN,Jones Anson
JORDAN,Jordan
JOURDANTON,Jourdanton
JUDSON MIDDLE SCHOOL,Judson Middle School
JULMATTHEY,Julius Matthey
JUNCTION,Junction
KARNES CTY,Karnes City Jr. High
KAZEN,Kazen
KERRVILLE,Kerrville
KINGSBOR,Kingsborough
KIRBY,Kirby
KITTY HAWK,Kitty Hawk
KRUEGER,Krueger
LA VERNIA,La Vernia
LAURA ING,Laura Ingalls Wilder
LEAKEY,Leakey
LEAL,Leal
LEANDER,Leander
LEGACY,Legacy
LLANO,Llano
LONGFELLOW,Longfellow
LOPEZ,Lopez
LOSOYA,Losoya
LOWELL,Lowell
LULING,Luling
LUNA,Luna
LYTLE,Lytle
MILLERACA,MILLER ACADEMY
MANN,Mann
MARBLE F,Marble Falls Mid
MARION,Marion
MARK T,Mark Twain
ML KING,Martin Luther King
MARY H,Mary Harper
MASON,Mason Middle Sch
MATHIS,Mathis
MC AULIFFE,Mc Auliffe Christa
MC DOWELL,Mc Dowell
MC NAIR,Mc Nair
MEDINA,Medina
MEDINA VAL,Medina Valley
METZGER,Metzger
MIDDLE,Middle School
MILLERACAD,Miller Academy
MISSNACADMY,Mission Academy
MOUNTAIN V,Mountain Valley
NATALIA,Natalia
NAVARRO,Navarro
NEFF PAT,Neff Pat
NEW BRAUN,New Braunfel
NIMITZ,Nimitz
NIXON,Nixon
NA,Not Applicable
O. HENRY,O. Henry Middle
OAK CREST,Oak Crest
OAK RUN,Oak Run School
PAGE,Page Middle
PEARSALL,Pearsall
PEASE,Pease E. M.
PETERSON,Peterson
PLEASANTON,Pleasanton
POE,Poe
PORT ISAB,Port Isabel
POTEET,Poteet
POTH,Poth
ROCKPORT/FULTON PORT ARANSAS,ROCKPORT/FULTON PORT ARANSAS
RAWLINSON,Rawlinson
RAYBURN,Rayburn Sam
RHODES,Rhodes
ROBERT G,Robert G Cole
ROGERS,Rogers
ROSS SUL,Ross Sul
ROYAL RDG,Royal Ridge
RUDDER,Rudder
SABINAL,Sabinal
SAEGERT,Saegert
SAISD,Saisd
SALADO,Salado
SCHULENBUR,Schulenburg
SCOBEE,Scobee Jr High
SCOBY,Scoby Middle School
SEELE,Seele
SEGUIN,Seguin
SHEPPARD,Sheppard
SMITHSON,Smithson Valley
SOMERSET,Somerset
SOUTHSIDE,Southside
SOUTHWEST,Southwest
SPRING BR,Spring Branch
STARKY,Starky
STEVENSON,Stevenson
STINSON,Stinson Katherine
STOCKDALE,Stockdale
TAFOLLA,Tafolla
TEJEDA,Tejeda
TERRELL,Terrell Wells
THREE RVR,Three Rivers
TRUMAN,Truman
UTOPIA,Utopia
UVALDE,Uvalde
VALE,Vale
W CAMPUS,West Campus
WHEATLEY,Wheatley Emerson
WHITE ED,White Ed
WHITTIER,Whittier
WILDER,Wilder
WIMBERLY,Wimberly
WOOD,Wood
WOODLAKE,Woodlake
WOODLAKE H,Woodlake Hills
WOOLS,Wools
WRENN,Wrenn
YORKTOWNJR,Yorktown Junior High
ZACHRY HB,Zachry H. B.
ZAMORA,Zamora
KENEDY,kenedy
