{
    "data": [
        {
            "id": "101",
            "name": "Unload bin"
        },
        {
            "id": "102",
            "name": "Load bin with fish" 
        },
        {
            "id": "103",
            "name": "Check-in into CS" 
        },
        {
            "id": "104",
            "name": "Check-out from CS" 
        },
        {
            "id": "105",
            "name": "Check-in into PD" 
        },
        {
            "id": "106",
            "name": "Check-out from PD" 
        }
    ],
    "draw": 0,
    "recordsTotal": 1,
    "recordsFiltered": 2
}