32003,Fleming Island
32008,Branford
32024,Lake City
32025,Lake City
32033,Elkton
32034,Fernandina Beach
32038,Fort White
32040,Glen Saint Mary
32043,Green Cove Springs
32052,Jasper
32053,Jennings
32054,Lake Butler
32055,Lake City
32056,Lake City
32058,Lawtey
32059,Lee
32060,Live Oak
32062,Mc Alpin
32063,Macclenny
32064,Live Oak
32065,Orange Park
32066,Mayo
32068,Middleburg
32071,O Brien
32073,Orange Park
32080,Saint Augustine
32082,Ponte Vedra Beach
32084,Saint Augustine
32085,Saint Augustine
32086,Saint Augustine
32087,Sanderson
32091,Starke
32092,Saint Augustine
32094,Wellborn
32095,Saint Augustine
32097,Yulee
32102,Astor
32105,Barberville
32110,Bunnell
32111,Candler
32112,Crescent City
32113,Citra
32114,Daytona Beach
32115,Daytona Beach
32116,Daytona Beach/Daytona Beach Shores
32117,Daytona Beach
32118,Daytona Beach/Holly Hill
32119,Daytona Beach/S Daytona Beach
32120,Daytona Beach
32121,Daytona Beach/South Daytona
32122,Daytona Beach
32123,Port Orange/Allandale/Daytona Beach
32124,Daytona Beach
32125,Daytona Beach
32126,Daytona Beach
32127,Port Orange/Ponce Inlet/Daytona Beach
32128,Port Orange/Daytona Beach
32129,Port Orange
32130,Deleon Springs
32131,East Palatka
32132,Edgewater
32133,Eastlake Weir
32134,Fort Mc Coy/Salt Springs
32135,Palm Coast
32136,Flagler Beach
32137,Palm Coast
32138,Grandin
32139,Georgetown
32140,Florahome
32141,Edgewater
32145,Hastings
32148,Interlachen
32157,Lake Como
32158,Lady Lake
32159,Lady Lake (The Villages)
32160,Lake Geneva
32162,Lady Lake/The Villages
32163,The Villages
32164,Palm Coast
32168,New Smyrna Beach
32169,New Smyrna Beach
32170,New Smyrna Beach
32173,Ormond Beach
32174,Ormond Beach
32175,Ormond Beach
32176,Ormond Beach
32177,Palatka
32178,Palatka
32179,Ocklawaha
32180,Pierson
32181,Pomona Park
32182,Orange Springs
32183,Ocklawaha
32187,San Mateo
32189,Satsuma
32190,Seville
32192,Sparr
32193,Welaka
32195,Weirsdale
32198,Daytona Beach
32201,Jacksonville
32202,Jacksonville
32203,Jacksonville
32204,Jacksonville
32205,Jacksonville
32206,Jacksonville
32207,Jacksonville
32208,Jacksonville
32209,Jacksonville
32210,Jacksonville
32211,Jacksonville
32212,Jacksonville
32216,Jacksonville
32217,Jacksonville
32218,Jacksonville
32219,Jacksonville
32220,Jacksonville
32221,Jacksonville
32222,Jacksonville
32223,Jacksonville
32224,Jacksonville
32225,Jacksonville
32226,Jacksonville
32228,Jacksonville
32231,Jacksonville
32232,Jacksonville
32233,Atlantic Beach
32234,Jacksonville
32236,Jacksonville
32238,Jacksonville
32240,Jacksonville Beach
32244,Jacksonville
32246,Jacksonville
32247,Jacksonville
32250,Jacksonville Beach
32254,Jacksonville
32256,Jacksonville
32257,Jacksonville
32258,Jacksonville
32259,Saint Johns
32277,Jacksonville
32301,Tallahassee
32303,Tallahassee
32304,Tallahassee
32305,Tallahassee
32308,Tallahassee
32309,Tallahassee
32310,Tallahassee
32311,Tallahassee
32312,Tallahassee
32314,Tallahassee
32317,Tallahassee
32320,Apalachicola
32322,Carrabelle
32323,Lanark Village
32326,Crawfordville
32327,Crawfordville
32328,Eastpoint
32331,Greenville
32333,Havana
32336,Lamont
32340,Madison
32341,Madison
32344,Monticello
32345,Monticello
32346,Panacea
32347,Perry
32348,Perry
32350,Pinetta
32351,Quincy
32352,Quincy
32353,Quincy
32356,Salem
32357,Shady Grove
32359,Steinhatchee
32361,Wacissa
32362,Woodville
32399,Tallahassee
32402,Panama City
32403,Panama City
32404,Panama City
32405,Panama City
32406,Panama City
32407,Panama City Beach
32408,Panama City
32409,Panama City
32410,Mexico Beach
32412,Panama City
32413,Panama City Beach
32420,Alford
32421,Altha
32423,Bascom
32424,Blountstown
32425,Bonifay
32426,Campbellton
32428,Chipley
32430,Clarksville
32431,Cottondale
32432,Cypress
32433,Defuniak Springs
32434,Mossy Head
32438,Fountain
32439,Freeport
32440,Graceville
32442,Grand Ridge
32443,Greenwood
32444,Lynn Haven
32446,Marianna
32447,Marianna
32448,Marianna
32455,Ponce de Leon
32456,Port Saint Joe
32459,Santa Rosa Beach
32460,Sneads
32461,Rosemary Beach
32464,Westville
32465,Wewahitchka
32466,Youngstown
32507,Pensacola
32508,Pensacola
32513,Pensacola
32514,Pensacola
32521,Pensacola
32523,Pensacola
32526,Pensacola
32531,Baker
32533,Cantonment
32534,Pensacola
32535,Century
32537,Milligan
32539,Crestview
32541,Destin
32547,Fort Walton Beach
32548,Fort Walton Beach
32550,Miramar Beach
32561,Gulf Breeze
32563,Gulf Breeze
32565,Jay
32566,Navarre
32569,Mary Esther
32570,Milton
32571,Milton
32572,Milton
32578,Niceville
32579,Shalimar
32583,Milton
32588,Niceville
32601,Gainesville
32602,Gainesville
32603,Gainesville
32605,Gainesville
32606,Gainesville
32607,Gainesville
32608,Gainesville
32609,Gainesville
32610,Gainesville
32612,Gainesville
32614,Gainesville
32615,Alachua
32616,Alachua
32617,Anthony
32618,Archer
32619,Bell
32621,Bronson
32625,Cedar Key
32626,Chiefland
32627,Gainesville
32628,Cross City
32631,Earleton
32634,Fairfield
32639,Gulf Hammock
32640,Hawthorne
32641,Gainesville
32643,High Springs
32644,Chiefland (PO Box)
32648,Horseshoe Beach
32653,Gainesville
32654,Island Grove
32656,Keystone Heights
32662,Lochloosa
32663,Lowell
32664,Mc Intosh
32666,Melrose
32667,Micanopy
32668,Morriston
32669,Newberry
32680,Old Town
32681,Orange Lake
32683,Otter Creek
32686,Reddick
32692,Suwannee
32693,Trenton
32696,Williston
32697,Worthington Springs
32701,Altamonte Springs East
32702,Altoona
32703,Apopka
32704,Apopka
32706,Cassadaga
32707,Casselberry
32708,Casselberrry/Winter Springs / Tuscawilla
32709,Christmas
32710,Clarcona
32712,Apopka
32713,Debary
32714,Altamonte Springs West/Forest City
32715,Altamonte Springs
32716,Altamonte Springs
32718,Casselberry
32719,Winter Springs/Casselberry
32720,Deland
32721,Deland
32722,Deland / Glenwood
32723,Deland
32724,Deland
32725,Deltona / Enterprise
32726,Eustis
32727,Eustis
32728,Deltona
32730,Casselberry/Fern Park
32732,Geneva
32733,Goldenrod
32735,Grand Island
32736,Eustis
32738,Deltona / Deltona Pines
32739,Deltona
32744,Lake Helen
32745,Mid Florida
32746,Lake Mary / Heathrow
32747,Lake Monroe
32750,Longwood East
32751,Maitland / Eatonville
32752,Longwood
32753,Debary
32754,Mims
32756,Mount Dora
32757,Mount Dora
32759,Oak Hill
32762,Oviedo
32763,Orange City
32764,Osteen
32765,Oviedo
32766,Oviedo/Chuluota
32767,Paisley
32768,Plymouth
32771,Sanford/Lake Forest
32772,Sanford
32773,Sanford
32774,Orange City
32775,Scottsmoor
32776,Sorrento / Mount Plymouth
32777,Tangerine
32778,Tavares / Deer Island
32779,Longwood/Wekiva Springs
32780,Titusville
32781,Titusville
32782,Titusville
32783,Titusville
32784,Umatilla / Donna Vista
32789,Winter Park
32790,Winter Park
32791,Longwood/Wekiva Springs
32792,Winter Park/Aloma
32793,Winter Park
32794,Maitland
32795,Lake Mary / Heathrow
32796,Titusville
32798,Zellwood
32799,Mid Florida
32801,Orlando
32802,Orlando
32803,Orlando/Colonial Town
32804,Orlando/College Park
32805,Orlando/Washington Shores
32806,Orlando/Delaney Park/Crystal Lake
32807,Orlando/Azalea Park/Park Manor
32808,Orlando/Pine Hills
32809,Orlando/Pinecastle/Oakridge/ Edgewood
32810,Orlando/Lockhart
32811,Orlando/Orlo Vista/Richmond Heights
32812,Orlando/Conway / Belle Isle
32814,Orlando
32815,Orlando/Kennedy Space Center
32816,Orlando/UCF
32817,Orlando/Union Park/University Area
32818,Orlando/Hiawassee/Pine Hills
32819,Orlando/Bay Hill/Sand Lake
32820,Orlando/Bithlo
32821,Orlando/International Drive
32822,Orlando/Ventura
32824,Orlando/Taft / Meadow woods
32825,Orlando/Rio Pinar / Union Park
32826,Orlando/Alafaya
32827,Orlando/Airport/Alafaya/Lake Nona
32828,Orlando/Alafaya/Waterford Lakes
32829,Orlando/Chickasaw
32830,Orlando/Lake Buena Vista
32831,Orlando/Alafaya
32832,Orlando/Moss Park/Lake Mary Jane
32833,Orlando/Wedgefield/Rocket City/Cape Orlando
32834,Orlando/Alafaya
32835,Orlando/Metrowest/Orlo Vista
32836,Orlando/Dr. Phillips/Bay Vista
32837,Orlando/Hunters Creek/Southchase
32839,Orlando/Edgewood/Pinecastle
32853,Orlando/Edgewood/Pinecastle
32854,Orlando
32855,Orlando
32856,Orlando
32857,Orlando
32858,Orlando
32859,Orlando
32860,Orlando
32861,Orlando
32862,Orlando
32867,Orlando
32868,Orlando
32869,Orlando
32872,Orlando/Union Park
32877,Orlando/South Creek
32878,Orlando/Alafaya
32885,Orlando/AmSouth
32886,Orlando/First Union Bank
32887,Orlando/Harcourt Brace
32890,Orlando/J C Penney Company
32891,Orlando/Sun Mortgage
32893,Orlando/Defense Finance Accounting
32896,Orlando
32897,Orlando/Sun Trust National Bank
32898,Orlando/MasterCard
32899,Orlando/Kennedy Space Center
32901,Melbourne
32902,Melbourne
32903,Indialantic/Melbourne
32904,Melbourne/Melbourne Village/West Melbourne
32905,Palm Bay/Melbourne
32906,Palm Bay/Melbourne
32907,Palm Bay/Melbourne
32908,Palm Bay/Melbourne
32909,Palm Bay/Melbourne
32910,Palm Bay/Melbourne
32911,Palm Bay/Melbourne
32912,Melbourne/West Melbourne
32919,Melbourne
32920,Cape Canaveral/Port Canaveral
32922,Cocoa
32923,Cocoa
32924,Cocoa
32925,Patrick AFB/Canaveral Air Station
32926,Cocoa/W Cocoa
32927,Cocoa/Port St John
32931,Cocoa Beach
32932,Cocoa Beach
32934,Melbourne/Eau Gallie
32935,Melbourne
32936,Melbourne
32937,Satellite Beach/Indian Harbor Beach/Melbourne
32940,Melbourne/Viera
32941,Melbourne
32948,Fellsmere
32949,Grant
32950,Malabar
32951,Melbourne Beach/Melbourne
32952,Merritt Island
32953,Merritt Island
32954,Merritt Island
32955,Rockledge/Viera
32956,Rockledge
32957,Roseland
32958,Sebastian
32959,Sharpes
32960,Vero Beach
32962,Vero Beach
32963,Vero Beach
32966,Vero Beach
32967,Vero Beach
32968,Vero Beach
32976,Sebastian/Barefoot Bay/Micco
33004,Dania
33009,Hallandale
33012,Hialeah
33013,Hialeah
33014,Hialeah
33015,Hialeah
33016,Hialeah
33019,Hollywood
33020,Hollywood
33021,Hollywood
33023,Hollywood
33024,Hollywood
33025,Hollywood
33026,Hollywood
33027,Hollywood
33028,Hollywood
33029,Hollywood
33030,Homestead
33031,Homestead
33032,Homestead
33033,Homestead
33034,Homestead
33035,Homestead
33036,Islamorada
33037,Key Largo
33040,Key West
33042,Summerland Key
33043,Big Pine Key
33050,Marathon
33051,Key Colony Beach
33052,Marathon Shores
33054,Opa Locka
33055,Opa Locka
33056,Opa Locka
33060,Pompano Beach
33062,Pompano Beach
33063,Pompano Beach
33064,Pompano Beach
33065,Pompano Beach
33066,Pompano Beach
33067,Pompano Beach
33068,Pompano Beach
33069,Pompano Beach
33070,Tavernier
33071,Pompano Beach
33073,Pompano Beach
33075,Pompano Beach
33076,Pompano Beach
33081,Hollywood
33082,Pembroke Pines
33083,Hollywood
33090,Homestead
33093,Pompano Beach
33097,Pompano Beach
33109,Miami Beach
33110,Miami
33122,Miami
33124,Miami
33125,Miami
33127,Miami
33129,Miami
33130,Miami
33131,Miami
33133,Miami
33134,Miami
33135,Miami
33136,Miami
33138,Miami
33139,Miami Beach
33140,Miami Beach
33141,Miami Beach
33142,Miami
33143,Miami
33144,Miami
33145,Miami
33146,Miami
33147,Miami
33154,Miami Beach
33155,Miami
33156,Miami
33157,Miami
33158,Miami
33160,North Miami Beach
33161,Miami
33162,Miami
33164,Miami
33165,Miami
33166,Miami
33167,Miami
33168,Miami
33169,Miami
33170,Miami
33172,Miami
33173,Miami
33174,Miami
33175,Miami
33176,Miami
33177,Miami
33178,Miami
33179,Miami
33180,Miami
33181,Miami
33182,Miami
33183,Miami
33186,Miami
33187,Miami
33189,Miami
33190,Miami
33193,Miami
33194,Miami
33195,Miami
33196,Miami
33197,Miami
33238,Miami
33242,Miami
33243,Miami
33247,Miami
33255,Miami
33265,Miami
33269,Miami
33301,Fort Lauderdale
33304,Fort Lauderdale
33305,Fort Lauderdale
33306,Fort Lauderdale
33307,Fort Lauderdale
33308,Fort Lauderdale
33309,Fort Lauderdale
33311,Fort Lauderdale
33312,Fort Lauderdale
33315,Fort Lauderdale
33316,Fort Lauderdale
33317,Fort Lauderdale
33319,Fort Lauderdale
33321,Fort Lauderdale
33322,Fort Lauderdale
33323,Fort Lauderdale
33324,Fort Lauderdale
33325,Fort Lauderdale
33326,Fort Lauderdale
33327,Fort Lauderdale
33328,Fort Lauderdale
33329,Fort Lauderdale
33330,Fort Lauderdale
33331,Fort Lauderdale
33334,Fort Lauderdale
33337,Fort Lauderdale
33338,Fort Lauderdale
33339,Fort Lauderdale
33346,Fort Lauderdale
33351,Fort Lauderdale
33388,Fort Lauderdale
33401,West Palm Beach
33402,West Palm Beach
33403,West Palm Beach
33404,West Palm Beach
33405,West Palm Beach
33406,West Palm Beach
33407,West Palm Beach
33408,North Palm Beach
33409,West Palm Beach
33410,Palm Beach Gardens
33411,West Palm Beach
33412,West Palm Beach
33413,West Palm Beach
33414,West Palm Beach
33415,West Palm Beach
33416,West Palm Beach
33417,West Palm Beach
33418,Palm Beach Gardens
33420,West Palm Beach
33421,West Palm Beach
33422,West Palm Beach
33424,Boynton Beach (PO Box)
33425,Boynton Beach
33426,Boynton Beach
33427,Boca Raton
33428,Boca Raton
33429,Boca Raton (PO Box)
33430,Belle Glade
33431,Boca Raton
33432,Boca Raton
33433,Boca Raton
33434,Boca Raton
33435,Boynton Beach
33436,Boynton Beach
33437,Boynton Beach
33438,Canal Point
33440,Clewiston
33441,Deerfield Beach
33442,Deerfield Beach
33443,Deerfield Beach
33444,Delray Beach
33445,Delray Beach
33446,Delray Beach
33447,Delray Beach
33448,Delray Beach
33449,Lake Worth
33454,Lake Worth
33455,Hobe Sound
33458,Jupiter
33459,Lake Harbor
33460,Lake Worth
33461,Lake Worth
33462,Lake Worth
33463,Lake Worth
33464,Boca Raton
33465,Lake Worth
33466,Lake Worth
33467,Lake Worth
33468,Jupiter
33469,Jupiter
33470,Loxahatchee
33471,Moore Haven
33472,Boynton Beach
33473,Boynton Beach
33475,Hobe Sound
33476,Pahokee
33477,Jupiter
33478,Jupiter
33480,Palm Beach
33481,Boca Raton
33482,Delray Beach
33483,Delray Beach
33484,Delray Beach
33486,Boca Raton
33487,Boca Raton
33496,Boca Raton
33497,Boca Raton (PO Box)
33498,Boca Raton
33503,Balm
33508,Brandon
33509,Brandon
33510,Brandon
33511,Brandon
33513,Bushnell
33514,Center Hill
33521,Coleman
33523,Dade City/Ridge Manor
33524,Crystal Springs
33525,Dade City/Richland
33526,Dade City
33527,Dover
33530,Durant
33534,Gibsonton
33537,Lacoochee
33538,Lake Panasoffkee
33539,Zephyrhills
33540,Zephyrhills
33541,Zephyrhills
33542,Zephyrhills
33543,Zephyrhills/Wesley Chapel
33544,Zephyrhills/Wesley Chapel
33545,Wesley Chapel
33547,Lithia
33548,Lutz
33549,Lutz
33550,Mango
33556,Odessa
33558,Lutz
33559,Lutz
33563,Plant City
33564,Plant City
33565,Plant City
33566,Plant City
33567,Plant City
33568,Riverview
33569,Riverview
33570,Ruskin/Apollo Beach
33571,Sun City Center / Ruskin
33572,Apollo Beach / Ruskin
33573,Sun City Center / Ruskin
33574,Saint Leo
33575,Ruskin
33576,San Antonio
33578,Riverview
33579,Riverview
33583,Seffner
33584,Seffner
33585,Sumterville
33586,Sun City
33587,Sydney
33592,Thonotosassa
33593,Trilby
33594,Valrico
33595,Valrico
33596,Valrico
33597,Webster/Ridge Manor Estates
33598,Wimauma
33601,Tampa
33602,Tampa
33603,Tampa / Seminole Heights
33604,Tampa / Sulphur Springs
33605,Tampa / Ybor City
33606,Tampa / Davis Island/University of Tampa
33607,Tampa
33608,Tampa/MacDill AFB
33609,Tampa / Palma Ceia
33610,Tampa / East Lake
33611,Tampa
33612,Tampa / Forest Hills
33613,Tampa
33614,Tampa
33615,Tampa / Town and Country
33616,Tampa
33617,Tampa / Temple Terrace
33618,Tampa / Carrollwood / Lake Carroll
33619,Tampa / Palm River / Progress Village
33620,Tampa / University of So. Fla
33621,Tampa
33622,Tampa
33623,Tampa
33624,Tampa / Northdale
33625,Tampa / Carrollwood
33626,Tampa/Northdale/Westchase
33629,Tampa / Palma Ceia
33630,Tampa
33631,Tampa
33633,Tampa
33634,Tampa
33635,Tampa
33637,Tampa / Temple Terrace
33646,Tampa
33647,Tampa / Tampa Palms
33650,Tampa
33651,Tampa
33655,Tampa
33660,Tampa / Time; INC
33661,Tampa / Time; INC
33662,Tampa / Time; INC
33663,Tampa
33664,Tampa/Time Customer Service; Inc
33672,Tampa
33673,Tampa
33674,Tampa
33675,Tampa
33677,Tampa
33679,Tampa
33680,Tampa
33681,Tampa
33682,Tampa
33684,Tampa
33685,Tampa
33686,Tampa
33687,Tampa/Temple Terrace
33688,Tampa/Carrollwood
33689,Tampa/Falkenburg Branch
33690,Tampa
33694,Tampa
33697,Tampa
33701,St Pete
33702,St Pete
33703,St Pete
33704,St Pete/Euclid
33705,St Pete
33706,St Pete/Pass a Grille Beach/St Pete Beach/Treasure Island
33707,St Pete/South Pasadena/Gulfport/St Pete Beach
33708,St Pete/Madeira Beach/N Redington Beach/Shores
33709,St Pete/Kenneth City
33710,St Pete/Crossroads
33711,St Pete/Gulfport
33712,St Pete
33713,St Pete
33714,St Pete
33715,St Pete/Tierra Verde
33716,St Pete
33728,St Pete
33729,St Pete/Home Shopping
33730,St Pete
33731,St Pete
33732,St Pete
33733,St Pete
33734,St Pete
33736,St Pete/St Pete Beach
33737,St Pete/Gulfport
33738,Madeira Beach
33740,St Pete/Treasure Island
33741,St Pete/Pass a Grille
33742,St Pete
33743,St Pete
33744,Bay Pines
33747,St Pete
33755,Clearwater
33756,Clearwater/Belleair
33757,Clearwater
33758,Clearwater
33759,Clearwater
33760,Clearwater
33761,Clearwater
33762,Clearwater
33763,Clearwater
33764,Clearwater
33765,Clearwater/Sunset Point
33766,Clearwater
33767,Clearwater/Clearwater Beach
33769,Clearwater
33770,Largo/Belleair Bluffs
33771,Largo
33772,Seminole
33773,Largo
33774,Largo
33775,Seminole
33776,Seminole/Largo
33777,Seminole/Largo
33778,Largo/Seminole
33779,Largo
33780,Pinellas Park
33781,Pinellas Park
33782,Pinellas Park
33784,St Pete
33785,Indian Rocks Beach/Belleair Beach/Indian Shores
33786,Belleair Beach/Belleair Shores/Indian Rocks Beach
33801,Lakeland
33802,Lakeland
33803,Lakeland
33804,Lakeland
33805,Lakeland / Gibsonia
33806,Lakeland
33807,Lakeland
33809,Lakeland / Polk City
33810,Lakeland
33811,Lakeland
33812,Lakeland
33813,Lakeland
33815,Lakeland
33820,Alturas
33823,Auburndale
33825,Avon Park/Avon Park AFB
33826,Avon Park
33827,Babson Park
33830,Bartow
33831,Bartow
33834,Bowling Green
33835,Bradley
33836,Davenport
33837,Davenport
33838,Dundee
33839,Eagle Lake
33840,Eaton Park
33841,Fort Meade
33843,Frostproof
33844,Haines City/Grenelefe
33845,Haines City/Grenelefe
33846,Highland City
33847,Homeland
33848,Intercession City
33849,Kathleen
33850,Lake Alfred
33851,Lake Hamilton
33852,Lake Placid
33853,Lake Wales South
33854,Fedhaven/Lakeland/Lake Wales
33855,Indian Lake Estates/Lake Wales
33856,Nalcrest / Lake Wales
33857,Lorida
33858,Loughman
33859,Lake Wales
33860,Mulberry
33862,Lake Placid
33863,Nichols
33865,Ona
33867,River Ranch  / Lake Wales
33868,Polk City
33870,Sebring
33871,Sebring
33872,Sebring
33873,Wauchula
33875,Sebring
33876,Sebring
33877,Waverly
33880,Winter Haven/Eloise/JPV/Wahnetta
33881,Winter Haven / Florence Villa
33882,Winter Haven
33883,Winter Haven
33884,Winter Haven / Cypress Gardens
33885,Winter Haven / Florence Villa
33888,Winter Haven / State Farm Insurance
33890,Zolfo Springs
33896,Davenport / Champions Gate
33897,Davenport
33898,Lake Wales
33900,Fort Myers
33901,Fort Myers
33902,Fort Myers
33903,North Fort Myers
33904,Cape Coral
33905,Fort Myers
33906,Fort Myers
33907,Fort Myers
33908,Fort Myers
33909,Cape Coral
33910,Cape Coral
33911,Fort Myers (PO BOX)
33912,Fort Myers
33913,Fort Myers
33914,Cape Coral
33915,Cape Coral
33916,Fort Myers
33917,North Fort Myers
33918,North Fort Myers
33919,Fort Myers
33920,Alva
33921,Boca Grande (PO BOX)
33922,Bokeelia
33924,Captiva
33927,El Jobean
33928,Estero
33930,Felda
33931,Fort Myers Beach
33932,Fort Myers Beach
33935,Labelle
33936,Lehigh Acres
33938,Murdock
33944,Palmdale
33945,Pineland
33946,Placida
33947,Rotonda West
33948,Port Charlotte
33949,Port Charlotte
33950,Punta Gorda
33951,Punta Gorda
33952,Port Charlotte
33953,Port Charlotte
33954,Port Charlotte
33955,Punta Gorda
33956,Saint James City
33957,Sanibel
33960,Venus
33965,Fort Myers
33966,Fort Myers
33967,Fort Myers
33970,Lehigh Acres
33971,Lehigh Acres
33972,Lehigh Acres
33973,Lehigh Acres
33974,Lehigh Acres
33975,Labelle
33976,Lehigh Acres
33980,Port Charlotte
33981,Port Charlotte
33982,Punta Gorda
33983,Punta Gorda
33990,Cape Coral
33991,Cape Coral
33993,Cape Coral
33994,fort Myers
34002,"DPO,AA"
34020,"APO, AA (Military)"
34024,"APO, AA (Military)"
34035,"APO, AA (Military)"
34037,"DPO,AA"
34092,"FPO,AA"
34093,"FPO, AA (Military)"
34102,Naples
34103,Naples
34104,Naples
34105,Naples
34106,Naples
34107,Vanderbilt Beach
34108,Naples
34109,Naples
34110,Naples
34112,Naples
34113,Naples
34114,Naples
34116,Naples
34117,Naples
34119,Naples
34120,Naples
34133,Bonita Springs
34134,Bonita Springs
34135,Bonita Springs
34138,Chokoloskee
34139,Everglades City
34141,Ochopee
34142,Immokalee
34143,Immokalee
34145,Marco Island
34201,Bradenton/Braden River/University Park
34202,Bradenton/Lakewood Ranch/Lakewood Rch
34203,Bradenton/Braden River/Lakewood Rch
34204,Bradenton
34205,Bradenton
34206,Bradenton
34207,Bradenton/Fifty Seventh Avenue
34208,Bradenton/Braden River
34209,Bradenton/Palma Sola
34210,Bradenton
34211,Bradenton
34212,Bradenton
34215,Cortez
34216,Anna Maria
34217,Holmes Beach/Bradenton Beach
34218,Holmes Beach/Bradenton Beach
34219,Parrish
34220,Palmetto
34221,Palmetto/Rubonia
34222,Ellenton
34223,Englewood
34224,Englewood
34228,Longboat Key
34229,Osprey
34230,Sarasota
34231,Sarasota/Gulf Gate Branch
34232,Sarasota/Fruitville
34233,Sarasota
34234,Sarasota
34235,Sarasota
34236,Sarasota
34237,Sarasota
34238,Sarasota/Sarasota Square
34239,Sarasota/Pinecraft
34240,Sarasota
34241,Sarasota
34242,Sarasota/Crescent Beach/Siesta Key
34243,Sarasota
34250,Terra Ceia/Terra Ceia Island
34251,Myakka City
34260,Sarasota/Manasota
34264,Oneco
34265,Arcadia
34266,Arcadia
34267,Fort Ogden (PO Box)
34268,Nocatee (PO Box)
34269,Arcadia
34270,Tallevast
34272,Laurel
34274,Nokomis
34275,Nokomis/North Venice
34276,Sarasota
34277,Sarasota
34278,Sarasota/Pinecraft
34280,Bradenton/Palma Sola
34281,Bradenton/Trailer Estates
34282,Bradenton/Fifty Seventh Avenue
34284,Venice
34285,Venice
34286,North Port/Venice
34287,North Port/Venice
34288,North Port
34289,North Port
34290,North Port (PO BOX)
34291,North Port
34292,Venice
34293,Venice
34294,Englewood (PO BOX)
34295,Englewood
34420,Belleview
34421,Belleview
34423,Crystal River
34428,Crystal River
34429,Crystal River
34430,Dunnellon
34431,Dunnellon
34432,Dunnellon
34433,Dunnellon/Citrus Springs
34434,Dunnellon/Citrus Springs
34436,Floral City
34442,Hernando
34445,Holder
34446,Homosassa
34447,Homosassa Springs
34448,Homosassa
34449,Inglis
34450,Inverness
34451,Inverness
34452,Inverness
34453,Inverness
34460,Lecanto
34461,Lecanto
34464,Beverly Hills
34465,Beverly Hills
34470,Ocala
34471,Ocala
34472,Ocala
34473,Ocala
34474,Ocala
34475,Ocala
34476,Ocala
34477,Ocala
34478,Ocala
34479,Ocala
34480,Ocala
34481,Ocala
34482,Ocala
34483,Ocala
34484,Oxford
34487,Homosassa
34488,Silver Springs
34489,Silver Springs
34491,Summerfield
34492,Summerfield
34498,Yankeetown
34601,Brooksville
34602,Brooksville
34603,Brooksville
34604,Brooksville/Masaryktown/Spring Hill
34605,Brooksville
34606,Spring Hill/Brooksville/Weeki Wachee
34607,Spring Hill/Brooksville/Weeki Wachee/Hernando Beach
34608,Spring Hill/Brooksville
34609,Spring Hill/Brooksville
34610,Spring Hill/Brooksville/Shady Hills/Weeki Wachee
34611,Spring Hill/Brooksville
34613,Brooksville/Spring Hill/Weeki Wachee
34614,Brooksville/Weeki Wachee
34636,Istachatta
34637,Land O Lakes
34638,Land O Lakes
34639,Land O Lakes
34652,New Port Richey
34653,New Port Richey
34654,New Port Richey
34655,New Port Richey/Seven Springs/Trinity
34656,New Port Richey
34660,Ozona
34661,Nobleton
34667,Hudson/Bayonet Point/Port Richey
34668,Port Richey
34669,Hudson/Port Richey
34673,Port Richey
34674,Hudson/Port Richey
34677,Oldsmar
34679,Aripeka
34680,Elfers
34681,Crystal Beach
34682,Palm Harbor
34683,Palm Harbor
34684,Palm Harbor
34685,Palm Harbor
34688,Tarpon Springs
34689,Tarpon Springs
34690,Holiday/Tarpon Springs
34691,Holiday/Tarpon Springs
34692,Holiday
34695,Safety Harbor
34697,Dunedin
34698,Dunedin
34705,Astatula
34711,Clermont
34712,Clermont
34713,Clermont
34714,Clermont
34715,Minneola
34729,Ferndale
34731,Fruitland Park
34734,Gotha
34736,Groveland
34737,Howey In The Hills
34739,Kenansville
34740,Killarney
34741,Kissimmee (Downtown East)
34742,Kissimmee
34743,Buenaventura Lakes/Kissimmee
34744,Kissimmee
34745,Kissimmee
34746,Kissimmee (West of Town)
34747,Kissimmee/Celebration
34748,Leesburg
34749,Leesburg POB
34753,Mascotte
34755,Minneola
34756,Montverde
34758,Kissimmee / Poinciana
34759,Kissimmee / Poinciana
34760,Oakland
34761,Ocoee
34762,Okahumpka
34769,St Cloud (City of St Cloud)
34770,St Cloud
34771,St Cloud (Magnolia Square)
34772,St Cloud (Narcoossee Road)
34773,St Cloud (Harmony)
34777,Winter Garden
34778,Winter Garden
34785,Wildwood
34786,Windermere
34787,Winter Garden/Oakland
34788,Leesburg / Haines Creek
34789,Leesburg
34797,Yalaha
34945,Fort Pierce
34946,Fort Pierce
34947,Fort Pierce
34948,Fort Pierce (PO Box)
34949,Fort Pierce
34950,Fort Pierce
34951,Fort Pierce
34952,Port Saint Lucie
34953,Port Saint Lucie
34954,Fort Pierce
34956,Indiantown
34972,Okeechobee
34973,Okeechobee
34974,Okeechobee
34979,Fort Pierce
34981,Fort Pierce
34982,Fort Pierce
34983,Port Saint Lucie
34984,Port Saint Lucie
34985,Port Saint Lucie
34986,Port Saint Lucie
34987,Port Saint Lucie
34988,Port Saint Lucie
34990,Palm City
34991,Palm City
34994,Stuart
34995,Stuart
34996,Stuart
34997,Stuart
99999,Unknown
