AdamsHB,Adams-HB
AdamsMiddle,Adams Middle
AddedSchoolA,Added School - A
AddedSchoolB,Added School - B
AddedSchoolC,Added School - C
AddedSchoolD,Added School - D
AddedSchoolE,Added School - E
AddedSchoolF,Added School - F
AlternativesNonDjj,Alternative s Non-Djj
AlvaMiddleSchool,Alva Middle School
ApopkaMiddle,Apopka Middle
ArborRidgeMiddle,Arbor Ridge Middle
AvalonMiddle,Avalon Middle
AzaleaMiddle,Azalea Middle
AzaleaMiddlePN,Azalea Middle-PN
BarringtonMiddle,Barrington Middle
BartelsMiddle,Bartels Middle
BartowMiddle,Bartow Middle
BayonetPointMiddle,Bayonet Point Middle
BayonetPointMiddlePO,Bayonet Point Middle-PO
BayPointMiddle,Bay Point Middle
BayPointMiddlePN,Bay Point Middle-PN
BellalagoCharterAcademyK8,Bellalago Charter Academy (K-8)
BenitoHB,Benito-HB
BenitoMiddle,Benito Middle
BlanknerSchoolK8,Blankner School (K-8)
BonitaSpringsMiddleSchool,Bonita Springs Middle School
BookerMiddle,Booker Middle
BookerTWashington,Booker T. Washington
BooneMiddle,Boone Middle
BradenRiverMiddle,Braden River Middle
BridgewaterMiddle,Bridgewater Middle
BrittHalfwayHouse,Britt Halfway House
BrooksideMiddle,Brookside Middle
BuchananHB,Buchanan-HB
BuchananMiddle,Buchanan Middle
BuffaloCreekMiddle,Buffalo Creek Middle
BurnettHB,Burnett-HB
BurnsHB,Burns-HB
BurnsMiddle,Burns Middle
CaloosaMiddleSchool,Caloosa Middle School
CalvinAHunsinger,Calvin A. Hunsinger
CaminitiExceptional,Caminiti Exceptional
CampbellMiddle,Campbell Middle
CarlosEHaileMiddle,Carlos E. Haile Middle
CarverExceptional,Carver Exceptional
CarverMiddle,Carver Middle
CarwiseMiddlePN,Carwise Middle-PN
CecilGrayMiddle,Cecil Gray Middle
CelebrationK12,Celebration (K12)
CentennialMiddle,Centennial Middle
CentennialMiddlePO,Centennial Middle-PO
ChainofLakesMiddle,Chain of Lakes Middle
ChallengerMiddleSchool,Challenger Middle School
CharlesSRusheMiddlePO,Charles S. Rushe Middle-PO
ChascoMiddle,Chasco Middle
ChascoMiddlePO,Chasco Middle-PO
ChilesMiddle,Chiles Middle
ClearwaterIntermediate,Clearwater Intermediate
ClearwaterIntermediatePN,Clearwater Intermediate-PN
ClermontMiddle,Clermont Middle
CoachmanFundamental,Coachman Fundamental
CoachmanFundamentalPN,Coachman Fundamental-PN
ColemanHB,Coleman-HB
ColemanMiddle,Coleman Middle
ConwayMiddle,Conway Middle
CornerLakeMiddle,Corner Lake Middle
CreeksideMiddle,Creekside Middle
CrewsLakeMiddlePO,Crews Lake Middle-PO
CrystalLakeMiddleJunior,Crystal Lake Middle/Jun
CypressLakeMiddleSchool,Cypress Lake Middle School
DavidCHinsonSrMiddle,David C Hinson Sr Middle
DavidsenHB,Davidsen-HB
DavidsenMiddle,Davidsen Middle
DayspringAcademy,Dayspring Academy
DeerwoodAcademy,Deerwood Academy
DeesPtecClearwater,Dees - Ptec Clearwater
DeesPtecStPete,Dees - Ptec St. Pete
DelandMiddle,Deland Middle
DeltonaMiddle,Deltona Middle
DenisonMiddle,Denison Middle
DennJohnMiddle,Denn John Middle
DeSotoMiddleSchool,DeSoto Middle School
DetentionEast,Detention East
DetentionWest,Detention West
DiplomatMiddleSchool,Diplomat Middle School
DiscoverIntermedia48,Discover Intermedia (4-8)
DiscoveryAcademyLakeAlfred,Discovery Academy of Lake Alfred
DiscoveryIntermediate,Discovery Intermediate
DiscoveryMiddle,Discovery Middle
DorothyThomas,Dorothy Thomas
DoverElementary,Dover Elementary
DowdellHB,Dowdell-HB
DowdellMiddle,Dowdell Middle
DropoutPrevention,Dropout Prevention
DundeeRidgeMiddle,Dundee Ridge Middle
DunedinHighlandMiddle,Dunedin Highland Middle
DunedinHighlandMiddlePN,Dunedin Highland Middle-PN
EastCountyCareer,East County Career
EastRidgeMiddle,East Ridge Middle
EisenhowerHB,Eisenhower-HB
EisenhowerMiddle,Eisenhower Middle
EustisMiddle,Eustis Middle
EwesEckerdIntensive,Ewes - Eckerd Intensive
EwesEckerdLeadership,Ewes - Eckerd Leadership
EwesEckerdYouthChall,Ewes - Eckerd Youth Chall
EwesEckerdYouthCons,Ewes - Eckerd Youth Cons
EwesWilderness,Ewes - Wilderness
FalkenburgAcademy,Falkenburg Academy
FamilyResources,Family Resources
FarnellHB,Farnell-HB
FerrellHB,Ferrell-HB
FerrellMiddle,Ferrell Middle
FitzgeraldMiddle,Fitzgerald Middle
FitzgeraldMiddlePN,Fitzgerald Middle-PN
FKMarchmanTech,F. K. Marchman Tech
FloridaYouthAcademy,Florida Youth Academy
FloridaYouthHigh,Florida Youth High
FloridaYouthModera,Florida Youth Modera
FortMeadeMiddle,Fort Meade Middle
FortMyersMiddleAcademy,Fort Myers Middle Academy
FranklinMagnetHB,Franklin Magnet-HB
FranklinMiddle,Franklin Middle
FreedomMiddle,Freedom Middle
FrostproofMiddleSeniorHigh,Frostproof Middle Se
FruitlandParkLearningCen,Fruitland Park Learnin
GalaxyMiddle,Galaxy Middle
GirlsProgramNorth,Girls Program-North
GiuntaMiddleHB,Giunta Middle-HB
GlenridgeMiddle,Glenridge Middle
GordonBurnettMiddle,Gordon Burnett Middle
GothaMiddle,Gotha Middle
GrayMiddle,Gray Middle
GrecoHB,Greco-HB
GrecoMiddle,Greco Middle
GreenwoodLakesMiddle,Greenwood Lakes Middle
GriffinMiddle,Griffin Middle
GulfMiddle,Gulf Middle
GulfMiddlePO,Gulf Middle-PO
GulfMiddleSchool,Gulf Middle School
HamiltonDisston,Hamilton Disston
HavenPoeRunaway,Haven Poe Runaway
Headstart,Headstart
HeritageMiddle,Heritage Middle
HeronCreekMiddle,Heron Creek Middle
HillHB,Hill-HB
HillMiddle,Hill Middle
HillsboroughAcademy,Hillsborough Academy
HillsboroughGroup,Hillsborough Group
HollyHillMiddle,Holly Hill Middle
HorizonMiddle,Horizon Middle
HospitalHomebound,Hospital/Homebound
HowardMiddle,Howard Middle
HudsonHigh,Hudson High
HudsonMiddle,Hudson Middle
HudsonMiddlePO,Hudson Middle-PO
HuntersCreekMiddle,Hunter's Creek Middle
IndianTrailsMiddle,Indian Trails Middle
JacksonHeightsMiddle,Jackson Heights Middle
JamesExceptional,James Exceptional
JamesIrvinEduc,James Irvin Educ
JamesK8HB,James K-8-HB
JamesStephensInternationalA,James Stephens International Academy
JenningsHB,Jennings-HB
JohnHopkinsMiddle,John Hopkins Middle
JohnHopkinsMiddlePN,John Hopkins Middle-PN
JohnLongMiddlePO,John Long Middle-PO
JosephLCarwiseMiddle,Joseph L. Carwise Middle
JuvenileDetention,Juvenile Detention
KathleenMiddle,Kathleen Middle
KennedyMiddle,Kennedy Middle
KennedyMiddlePN,Kennedy Middle-PN
KissimmeeMiddle,Kissimmee Middle
LAAingerMiddle,L.A. Ainger Middle
LakeAlfredAddairMiddle,Lake Alfred-Addair Middle
LakeAlfredCareerDevel,Lake Alfred Career Devel
LakeGibsonMiddleJunior,Lake Gibson Middle/Junio
LakelandHighlandsMiddle,Lakeland Highlands Middl
LakeNonaMiddleSchool,Lake Nona Middle School
LakeviewMiddleOrangeCty,Lakeview Middle
LandOlakesHigh,Land Olakes High
LargoMiddle,Largo Middle
LargoMiddlePN,Largo Middle-PN
LaurelNokomisMiddle,Laurel Nokomis Middle
LavoyExceptional,Lavoy Exceptional
LawtonChilesMiddle,Lawton Chiles Middle
LeafPemhs,Leaf Pemhs
LeafRecovery,Leaf Recovery
LealmanIntermediate,Lealman Intermediate
LealmanIntermediatePN,Lealman Intermediate-PN
LeeMiddle,Lee Middle
LeeMiddleSchool,Lee Middle School
LegacyMiddle,Legacy Middle
LehighAcresMiddleSchool,Lehigh Acres Middle School
LesliePetersHalfway,Leslie Peters Halfway
LexingtonMiddleSchool,Lexington Middle School
LibertyHB,Liberty-HB
LibertyMiddle,Liberty Middle
LincolnMiddle,Lincoln Middle
LockhartMiddle,Lockhart Middle
LopezElementary,Lopez Elementary
LouiseRJohnsonMiddle,Louise R. Johnson Middle
MadeiraBeachMiddle,Madeira Beach Middle
MadeiraBeachMiddlePN,Madeira Beach Middle-PN
MadisonHB,Madison-HB
MadisonMiddle,Madison Middle
MaitlandMiddle,Maitland Middle
MandalaAdolescent,Mandala Adolescent
MannHB,Mann-HB
MannMiddle,Mann Middle
MarinerMiddleSchool,Mariner Middle School
MarkhamWoodsMiddle,Markham Woods Middle
MarshallHB,Marshall-HB
MarshallMiddle,Marshall Middle
MarthaBKingMiddle,Martha B. King Middle
MartinezHB,Martinez-HB
McIntoshMiddle,McIntosh Middle
McLaneHB,McLane-HB
MclaneMiddle,Mclane Middle
MclaughlinMiddle,Mclaughlin Middle
MeadowbrookMiddle,Meadowbrook Middle
MeadowlawnMiddle,Meadowlawn Middle
MeadowlawnMiddlePN,Meadowlawn Middle-PN
MeadowWoodMiddle,Meadow Wood Middle
MemorialHB,Memorial-HB
MemorialMiddle,Memorial Middle
MendezSed,Mendez Sed
MichiganInternationalAcademy,Michigan International Academy
MiddleSchoolCC,Middle School 'Cc'
MiddleSchoolEE,Middle School 'Ee'
MiddletonMiddleTechHB,Middleton Middle Tech-HB
MidFloridaTechnicalIns,Mid Florida Technical In
MillenniumMiddle,Millennium Middle
MilweeMiddle,Milwee Middle
ModestaRobbins,Modesta Robbins
MonroeHB,Monroe-HB
MonroeMiddle,Monroe Middle
MooreMickensEduc,Moore-Mickens Educ
MountDoraMiddle,Mount Dora Middle
MulberryMiddle,Mulberry Middle
MulrennanHB,Mulrennan-HB
MurdockMiddle,Murdock Middle
NarcoosseeCommunityK8,Narcoossee Community (K-8)
NaturesClassroomHB,Natures Classroom-HB
NeptuneMiddle68,Neptune Middle  (6-8)
NewPortRicheyMarine,New Port Richey Marine
NewSmyrnaBeachMiddleSch,New Smyrna Beach Middl
NFtMyersAcadforArts,North Fort Myers Academy for the Arts
NinaHarrisExceptional,Nina Harris Exceptional
NolanMiddle,Nolan Middle
NorthTampaAlternative,North Tampa Alternative
NorthWardSecondary,North Ward Secondary
NorwoodSecondary,Norwood Secondary
OakGroveMiddle,Oak Grove Middle
OakGroveMiddlePN,Oak Grove Middle-PN
OakHammockMiddleSchool,Oak Hammock Middle School
OakParkMiddle,Oak Park Middle
OakParkSchoolSouth,Oak Park School South
OcoeeMiddle,Ocoee Middle
OdysseyMiddle,Odyssey Middle
OrangeGroveHB,Orange Grove-HB
OrangeGroveMiddle,Orange Grove Middle
OrientRoadJail,Orient Road Jail
OrmondBeachMiddle,Ormond Beach Middle
OsceolaMiddle,Osceola Middle
OsceolaMiddlePN,Osceola Middle-PN
Other,Other
Pace,Pace
PaceCenterForGirls,Pace Center For Girls
PaceForGirls,Pace For Girls
PalmHarborMiddle,Palm Harbor Middle
PalmHarborMiddlePN,Palm Harbor Middle-PN
PanamaKeyIsland,Panama Key Island
ParkhillExceptional,Parkhill - Exceptional
ParkwayMiddle,Parkway Middle
PascoMiddle,Pasco Middle
PascoMiddlePO,Pasco Middle-PO
PaulBStephensExcep,Paul B. Stephens Excep
PaulRSmithMiddlePO,Paul R. Smith Middle-PO
PepinAcademy,Pepin Academy
PiedmontLakesMiddle,Piedmont Lakes Middle
PierceHB,Pierce-HB
PierceMiddle,Pierce Middle
PinellasBootCamp,Pinellas Boot Camp
PinellasBootCampTrans,Pinellas Boot Camp Trans
PinellasMarine,Pinellas Marine
PinellasParkMiddle,Pinellas Park Middle
PinellasParkMiddlePN,Pinellas Park Middle-PN
PineViewMiddle,Pine View Middle
PineViewMiddlePO,Pine View Middle-PO
PineViewsMiddle,PineView Middle
PlantCityExceptional,Plant City Exceptional
PortCharlotteMiddle,Port Charlotte Middle
ProgressVillageMiddle,Progress Village Middle
ProgressVlgScoftheArtsHB,Progress Vlg Sc of the Arts-HB
PtecClearwater,Ptec - Clearwater
PtecSouthSecondary,Ptec South Secondary
PtecStPetersburg,Ptec - St Petersburg
PuntaGordaMiddle,Punta Gorda Middle
QuestMiddleSchool,Quest Middle School
RampelloDowntownPartnerHB,Rampello Downtown Partner-HB
RandallHB,Randall-HB
RandellMiddle,Randell Middle
RaymondBStewart,Raymond B. Stewart
RaymondBStewartMiddlePO,Raymond B Stewart Middle-PO
RichardLSanders,Richard L. Sanders
RiverRidgeMiddle,River Ridge Middle
RiverRidgeMiddlePO,River Ridge Middle-PO
RiversideAcademy,Riverside Academy
RiverSpringsMiddleSchool,River Springs Middle School
RiverviewMiddle,Riverview Middle
RivieraMiddle,Riviera Middle
RivieraMiddlePN,Riviera Middle-PN
RobertWillisMiddleSchool,Robert Willis Middle School
RobinswoodMiddle,Robinswood Middle
RockLakeMiddle,Rock Lake Middle
RodgersHB,Rodgers-HB
RodgersMiddle,Rodgers Middle
RolandParkHB,Roland Park-HB
RolandParkMiddle,Roland Park Middle
SafetyHarborMiddle,Safety Harbor Middle
SafetyHarborMiddlePN,Safety Harbor Middle-PN
SafetyHarborSecondary,Safety Harbor Secondary
SamuelLRobinson,Samuel L. Robinson
SanAntonioBoys,San Antonio Boys
SanfordMiddle,Sanford Middle
SaraScottHarlleeMiddle,Sara Scott Harllee Middle
SarasotaMiddle,Sarasota Middle
SeminoleMiddle,Seminole Middle
SeminoleMiddlePN,Seminole Middle-PN
SergeantSmithMiddleHB,Sergeant Smith Middle-HB
SevenSpringsMiddle,Seven Springs Middle
SevenSpringsMiddlePO,Seven Springs Middle-PO
ShieldsHB,Shields-HB
SilverSandsMiddle,Silver Sands Middle
SleepyHillMiddle,Sleepy Hill Middle
SlighHB,Sligh-HB
SlighMiddle,Sligh Middle
SouthCreekMiddle,South Creek Middle
SouthSeminoleMiddle,South Seminole Middle
SouthsideFundamental,Southside Fundamental
SouthsideFundamentalPN,Southside Fundamental-PN
SouthSumterMiddle,South Sumter Middle
SouthwesternMiddle,Southwestern Middle
SouthwestMiddle,Southwest Middle
StambaughMiddle,Stambaugh Middle
StCloudMiddle68,St. Cloud Middle  (6-8)
StewartHB,Stewart-HB
StewartMiddle,Stewart Middle
StonewallJacksonMiddle,Stonewall Jackson Middle
StPetersburgChall,St. Petersburg Chall
SunRidgeMiddle,SunRidge Middle
SunshineYouth,Sunshine Youth
TampaBayAcademy,Tampa Bay Academy
TampaMarineInstitute,Tampa Marine Institute
TarponSpringsMiddle,Tarpon Springs Middle
TarponSpringsMiddlePN,Tarpon Springs Middle-PN
TavaresMiddle,Tavares Middle=Tavares Middle
TaylorMiddleHigh,Taylor Middle/High
TDewittTaylorMiddleHigh,T. Dewitt Taylor Middle-High
TeagueMiddle,Teague Middle
TheSanibelSchool,The Sanibel School
ThomasEWeightman,Thomas E. Weightman
ThomasEWeightmanMiddlePO,Thomas E Weightman Middle-PO
ThreeOaksMiddleSchool,Three Oaks Middle School
ThurgoodMarshallFundPN,Thurgood Marshall Fund-PN
TomlinHB,Tomlin-HB
TomlinMiddle,Tomlin Middle
TrafalgarMiddleSchool,Trafalgar Middle School
Transition,Transition
TurkeyCreekHB,Turkey Creek-HB
TurkeyCreekMiddle,Turkey Creek Middle
TuskawillaMiddle,Tuskawilla Middle
TyroneMiddle,Tyrone Middle
TyroneMiddlePN,Tyrone Middle-PN
UmatillaMiddle,Umatilla Middle
UnionAcademyMagnet,Union Academy Magnet
UnionParkMiddle,Union Park Middle
VanBurenHB,Van Buren-HB
VanBurenMiddle,Van Buren Middle
VarsityLakesMiddleSchool,Varsity Lakes Middle School
VelascoExceptional,Velasco Exceptional
VeniceAreaMiddle,Venice Area Middle
VerternsParkAcademyforthe,Verterns Park Academy for the Arts
WalkerHB,Walker-HB
WalkerMiddle,Walker Middle
WatersCareer,Waters Career
WDSuggMiddle,W.D. Sugg Middle
WebbHB,Webb-HB
WebbMiddle,Webb Middle
WestridgeMiddle,Westridge Middle
WestSide,West Side
WestwoodMiddle,Westwood Middle
WettmanEducation,Wettman Education
WildwoodMiddle,Wildwood Middle
WilliamsHB,Williams-HB
WilliamsMiddle,Williams Middle
WilsonAcademy,Wilson Academy
WilsonHB,Wilson-HB
WilsonMiddle,Wilson Middle
WindyHillMiddle,Windy Hill Middle
WindyRidgeK8,Windy Ridge (K-8)
WolfLakeMiddle,Wolf Lake Middle
WoodlandMiddle,Woodland Middle School
YoungHB,Young-HB
YoungMagnet,Young Magnet
YouthEnvironmental,Youth Environmental
YouthServices,Youth Services
