{
    "data": [
        {
            "id": "1000001",
            "licence_number": "1ก1111",
            "make": " HINO",
            "model": "SERIES 5 FL8JNKA",
            "colour": "white",
            "type": "container",
            "year": "2558",
            "mileage": "7 Km." 
        },
        {
            "id": "1000002",
            "licence_number": "2ก2222",
            "make": "ISUZU",
            "model": "FVM34QNXXS",
            "colour": "white",
            "type": "container",
            "year": "2557",
            "mileage": "15 Km."
        }
    ],
    "draw": 0,
    "recordsTotal": 1,
    "recordsFiltered": 2
}