{
    "data": [
        {
            "id": "10001",
            "name": "TUM1",
            "type": "CS",
            "address": "xxxx xxx xxx",
            "latitude": "-34",
            "longitude": "108"       
        },
        {
            "id": "10002",
            "name": "TUM3",
            "type": "CS",
            "address": "xxx xxx xxx xx",
            "latitude": "-33",
            "longitude": "106"
        }
    ],
    "draw": 0,
    "recordsTotal": 1,
    "recordsFiltered": 2
}