3726,Appling County
3727,Atkinson County
3728,Carver
3729,Coretta Scott King
3730,Crim
3731,Crim
3732,Douglass
3733,Grady
3734,Grady
3735,Mays
3736,MH Jackson Jr
3737,MH Jackson Jr
3738,North Atlanta
3739,South Atlanta
3740,Therrell
3741,Washington
3742,Bacon County
3743,Baker County
3744,Baldwin
3745,Banks County
3746,Apalachee
3747,Winder Barrow
3748,Adairsville
3749,Cartersville
3750,Cass
3751,Woodland
3752,Fitzgerald
3753,Berrien
3754,Central
3755,Howard
3756,Hutchings
3757,Northeast
3758,Rutland
3759,Southwest
3760,Westside
3761,Bleckley County
3762,Brantley County
3763,Brooks County
3764,Bryan County
3765,Richmond Hill
3766,Portal
3767,Southeast Bulloch
3768,Statesboro
3769,Burke County
3770,Jackson
3771,Calhoun County
3772,Camden County
3773,Metter
3774,Bowdon
3775,Carrollton
3776,Central
3777,Mount Zion
3778,Temple
3779,Villa Rica
3780,Heritage
3781,Lakeview Ft.Oglethorpe
3782,Ringgold
3783,Charlton County
3784,Beach
3785,Jenkins
3786,Islands
3787,Johnson
3788,Groves
3789,Savannah
3790,Windsor Forest
3791,Woodville Tompkins
3792,Chattahoochee
3793,Chattooga
3794,Trion
3795,Cherokee
3796,Creekview
3797,Crossroads
3798,Etowah
3799,River Ridge
3800,Sequoyah
3801,Woodstock
3802,Cedar Shoals
3803,Clarke Central
3804,Classic City
3805,Randolph Clay
3806,Drew
3807,Forest Park
3808,Jonesboro
3809,Lovejoy
3810,Morrow
3811,Mount Zion
3812,Mundys Mill
3813,North Clayton
3814,Riverdale
3815,Clinch County
3816,Allatoona
3817,Campbell
3818,Harrison
3819,Hillgrove
3820,Kell
3821,Kennesaw Mountain
3822,Lassiter
3823,Marietta
3824,Mceachern
3825,North Cobb
3826,Osborne
3827,Pebblebrook
3828,Pope
3829,South Cobb
3830,Sprayberry
3831,Walton
3832,Wheeler
3833,Coffee County
3834,Colquitt County
3835,Evans
3836,Greenbrier
3837,Grovetown
3838,Harlem
3839,Lakeside
3840,Cook County
3841,East Coweta
3842,Newnan
3843,Northgate
3844,Crawford County
3845,Crisp County
3846,Dade County
3847,Dawson County
3848,Bainbridge
3849,Arabia Mountain
3850,Cedar Grove
3851,Chamblee
3852,Clarkston
3853,Columbia
3854,Cross Keys
3855,Decatur
3856,Dekalb Arts
3857,Druid Hills
3858,Dunwoody
3859,Elizabeth Andrews
3860,Lakeside
3861,Lithonia
3862,Martin Luther King Jr
3863,Mcnair
3864,Miller Grove
3865,Redan
3866,Stephenson
3867,Southwest Dekalb
3868,Stone Mountain
3869,Towers
3870,Tucker
3871,Dodge County
3872,Dooly County
3873,Albany
3874,Dougherty
3875,Monroe
3876,Westover
3877,Chapel Hill
3878,Douglas County
3879,Lithia Springs
3880,New Manchester
3881,Alexander
3882,Early County
3883,Echols County
3884,Effingham County
3885,South Effingham
3886,Elbert County
3887,Swainsboro
3888,Claxton
3889,Fannin County
3890,Fayette County
3891,Mcintosh
3892,Sandy Creek
3893,Starrs Mill
3894,Whitewater
3895,Armuchee
3896,Coosa
3897,Model
3898,Pepperell
3899,Rome
3900,Forsyth Central
3901,Lambert
3902,North Forsyth
3903,South Forsyth
3904,West Forsyth
3905,Franklin County
3906,Alpharetta
3907,Banneker
3908,Centennial
3909,Chattahoochee
3910,Creekside
3911,Independence
3912,Johns Creek
3913,Langston Hughes
3914,Milton
3915,McClarin
3916,North Springs
3917,Northview
3918,Riverwood
3919,Roswell
3920,Tri Cities
3921,Westlake
3922,Gilmer
3923,Glascock County
3924,Brunswick
3925,Glynn Academy
3926,Calhoun City
3927,Gordon Central
3928,Sonoraville
3929,Cairo
3930,Greene County
3931,Archer
3932,Berkmar
3933,Brookwood
3934,Buford
3935,Buford
3936,Central Gwinnett
3937,Collins Hill
3938,Dacula
3939,Duluth
3940,Grayson
3941,Lanier
3942,Meadowcreek
3943,Mill Creek
3944,Mountain View
3945,Norcross
3946,North Gwinnett
3947,Parkview
3948,Peachtree Ridge
3949,Phoenix
3950,Shiloh
3951,South Gwinnett
3952,Habersham Central
3953,Chestatee
3954,East Hall
3955,Flowery Branch
3956,Gainesville
3957,Johnson
3958,North Hall
3959,West Hall
3960,Wood Mill
3961,Hancock Central
3962,Bremen
3963,Bremen
3964,Haralson County
3965,Harris County
3966,Hart County
3967,Heard County
3968,Dutchtown
3969,Eagles Landing
3970,Henry County
3971,Locust Grove
3972,Luella
3973,Ola
3974,Patrick Henry
3975,Stockbridge
3976,Union Grove
3977,Woodland
3978,Houston County
3979,Northside
3980,Perry
3981,Veterans
3982,Warner Robins
3983,Irwin County
3984,Commerce
3985,East Jackson Comp
3986,Jackson County
3987,Jefferson
3988,Jasper County
3989,Jeff Davis
3990,Jefferson County
3991,Jenkins County
3992,Johnson County
3993,Jones County
3994,Lamar County
3995,Lanier County
3996,Dublin
3997,East Laurens
3998,West Laurens
3999,Lee County
4000,Bradwell Institute
4001,Liberty County
4002,Lincoln County
4003,Long County
4004,Lowndes
4005,Valdosta
4006,New Lumpkin County
4007,Macon County
4008,Madison County
4009,Marion
4010,Thomson
4011,Mcintosh Academy
4012,Greenville
4013,Manchester
4014,Miller County
4015,Mitchell County
4016,Pelham
4017,Mary Persons
4018,Montgomery County
4019,Morgan County
4020,Murray County
4021,North Murray
4022,Carver Magnet
4023,Columbus Magnet
4024,Hardaway
4025,Jordan
4026,Kendrick
4027,Northside
4028,Shaw
4029,Spencer
4030,Alcovy
4031,Eastside
4032,Newton
4033,North Oconee
4034,Oconee County
4035,Oglethorpe County
4036,East Paulding
4037,Hiram
4038,North Paulding
4039,Paulding County
4040,South Paulding
4041,Peach County
4042,Pickens County
4043,Pierce County
4044,Pike County
4045,Cedartown
4046,Rockmart
4047,Hawkinsville
4048,Putnam County
4049,Stewart Quitman
4050,Rabun County
4051,Randolph Clay
4052,Academy Of Richmond
4053,Cross Creek
4054,George Butler
4055,Glenn Hills
4056,Hephzibah
4057,Lucy Laney
4058,Josey
4059,Westside
4060,Heritage
4061,Rockdale County
4062,Salem
4063,Schley County
4064,Screven County
4065,Seminole County
4066,Griffin
4067,Spalding
4068,Stephens County
4069,Stewart County
4070,A Sumter No
4071,A Sumter So
4072,Central
4073,Taliaferro County
4074,Tattnall County
4075,Taylor County
4076,Telfair County
4077,Terrell County
4078,Bishop Hall
4079,Thomas County
4080,Thomasville
4081,North East Tift
4082,Tift County
4083,Toombs County
4084,Vidalia Comprehensive
4085,Vidalia Comprehensive
4086,Towns County
4087,Treutlen
4088,Callaway
4089,Lagrange
4090,Troup County
4091,Turner County
4092,Twiggs County
4093,Union County
4094,Woody Gap
4095,Upson Lee
4096,Gordon Lee
4097,Lafayette
4098,Ridgeland
4099,Loganville
4100,Monroe Area
4101,Social Circle
4102,Social Circle
4103,Walnut Grove
4104,Ware County
4105,Warren County
4106,Washington County
4107,Wayne County
4108,Webster
4109,Wheeler County
4110,White County
4111,Coahulla Creek
4112,Dalton
4113,Northwest Whitfield
4114,Phoenix
4115,Southeast Whitfield
4116,Wilcox County
4117,Washington Wilkes
4118,Wilkinson County
4119,Worth County
4122,Other
4125,MORRIS INNOV
4126,NEW HAMPSTEAD
4130,CAMBRIDGE
4136,Emanuel County Inst
