3665,A Z Kelsey
4142,AARON COHN
3262,Adairsville
3333,Adamson
3421,Albany
3495,Alton C Crews
3494,Anita White Carson
3269,Appling
3235,Appling County
3450,Armuchee
3386,Arnall
3607,Arnold
3711,Arthur Williams
3490,Ashworth
3236,Atkinson County
3627,Austin
3540,Austin Road
3465,Autrey Milll
3349,Awtrey
3334,Babb
3254,Bacon County
3605,Bagley
3397,Bainbridge
3608,Baker
3255,Baker County
3270,Ballard Hudson
3257,Banks County
3601,Banks Stevens
3350,Barber
3305,Bartlett
3496,Bay Creek
3291,Bay Springs
4137,BEAR CREEK
3466,Bear Creek
3267,Ben Hill County
3444,Bennetts Mill
3497,Berkmar
3268,Berrien
3237,Best Academy
3302,Bethune
3609,Blackmon Road
3276,Bleckley County
3271,Bloomfield
3552,Bonaire
3323,Booth
3447,Booth
3292,Bowdon
3277,Brantley County
3534,Bremen Middle
3535,Bremen Middle
3278,Brooks County
3238,Brown
3279,Bryan County
3498,Buford
3499,Buford
3239,Bunche
3285,Burke County
3328,Burney Harris Lyons
3635,Byron
3303,C Ellis K8
3526,C W Davis
3491,Calhoun City
3287,Calhoun County
3690,Callaway
3288,Camden
3467,Camp Creek
3351,Campbell
3293,Carrollton
3263,Cartersville
3702,Carver
3666,Carver Road
3264,Cass
3401,Cedar Grove
3641,Cedartown
3294,Central
3674,Central
3402,Chamblee
3403,Champion
3404,Chapel Hill
3427,Chapel Hill
3318,Chattahoochee County
3698,Chattanooga Valley
3527,Chestatee
3428,Chestnut Log
3329,Clarke
3442,Claxton
3332,Clay County
3484,Clear Creek
3619,Clements
3572,Clifton Ridge
3348,Clinch County
3240,Coan
3304,Coastal
3374,Coffee
3331,Coile
3676,Collins
3377,Columbia
3405,Columbia
3561,Commerce
3658,Conyers
3385,Cook County
3352,Cooper
3451,Coosa
3241,Coretta Scott King
3500,Couch
3620,Cousins
3667,Cowan Road
3468,Crabapple
3392,Crawford County
3321,Creekland
3501,Creekland
3393,Crisp County
3295,Crossroads
3502,Dacula
3394,Dade
3716,Dalton
3353,Daniell
3395,Dawson County
3322,Dean Rusk
3308,Derenne
3354,Dickerson
3419,Dodge County
3355,Dodgen
3420,Dooly County
3610,Double Churches
3422,Dougherty
3406,Druid Hills
3576,Dublin
3503,Duluth
3356,Durham
3541,Dutchtown
3306,E Broad St K8
3309,E. F. Garrison K8
3542,Eagles Landing
3435,Early County
3357,East Cobb
3611,East Columbus
3387,East Coweta
3528,East Hall
3562,East Jackson
3577,East Laurens
3629,East Paulding
3717,Eastbrook
3437,Ebenezer
3436,Echols County
3335,Eddie White Academy
3612,Eddy
3659,Edwards
3438,Effingham County
3684,Eighth Street
3440,Elbert County
3469,Elkins Pointe
4135,Emanuel County Inst
3378,Evans
3388,Evans
3429,Factory Shoals
3430,Fairplay
3443,Fannin County
3445,Fayette
3553,Feagin Mill
3504,Five Forks
3446,Flat Rock
3358,Floyd
3336,Forest Park
3613,Fort
3636,Fort Valley
3505,Frank N Osborne
3464,Franklin County
3324,Freedom
3407,Freedom
3529,Gainesville
3691,Gardner Newman
3359,Garrett
3660,Gen Ray Davis
3310,Georgetown K8
3485,Gilmer
3606,Gladden
3486,Glascock County
3506,Glenn C Jones
3648,Glenn Hills
3677,Glennville
3487,Glynn
3311,Godley Station K8
3699,Gordon Lee
3507,Grace Snell
3375,Gray
3573,Gray Station
3379,Greenbrier
3596,Greenville
3360,Griffin
3380,Grovetown
3525,H A Wilbanks
3312,H W Hesse K8
3585,Hahira
3543,Hampton
3533,Hancock Central
3536,Haralson County
3381,Harlem
3242,Harper Archer
3537,Harris County Carver
3538,Hart County
3258,Haymon Morris
3472,Haynes Bridge
3539,Heard County
3286,Henderson
3408,Henderson
3544,Henry County
3649,Hephzibah
3299,Heritage
3630,Herschel Jones
3361,Hightower Trail
3330,Hilsman
3470,Holcomb Bridge
3471,Hopewell
3650,Hornsby K8
3272,Howard
3602,Hubbard
3314,Hubert
3554,Huntington
3398,Hutto
3621,Indian Creek
3243,Inman
3244,Inman
3560,Irwin County
3313,Isle of Hope
3628,J A Dobbins
3685,J R Trippe
3686,J R Trippe
3509,J Richards
3488,Jane Macon
3637,Jasper
3566,Jasper County
3567,Jeff Davis
3563,Jefferson
3570,Jenkins County
3651,John M Tutt
3571,Johnson County
3337,Jonesboro
3338,Kendrick
3245,Kennedy
3668,Kennedy Road
3246,King
3247,King
3564,Kings Bridge
3700,Lafayette
3382,Lakeside
3455,Lakeside
3300,Lakeview
3574,Lamar County
3652,Langford
3281,Langston Chapel
3511,Lanier
3575,Lanier County
3389,Lee
3579,Lee County
3580,Lewis Frasier
3456,Liberty
3622,Liberty
3512,Lilburn
3583,Lincoln County
3362,Lindley
3409,Lithonia
3457,Little Mill
3545,Locust Grove
3703,Loganville
3248,Long
3692,Long Cane
4141,LONG CO
3363,Lost Mountain
3510,Louise Radloff
3568,Louisville
3339,Lovejoy
3364,Lovinggood
3586,Lowndes
3546,Luella
3590,Lumpkin County
3365,Mabry
3682,Macintyre Park
3591,Macon County
3592,Madison County
3390,Madras
3624,Malcom Bridge
3597,Manchester
3366,Marietta
3593,Marion County
3614,Marshall
3712,Martha Puckett
3399,Mary Mcleod Bethune
3432,Mason Creek
3367,Mccleskey
3368,McClure
3631,McClure
3513,Mcconnell
3595,Mcintosh County
3410,Mcnair
3473,Mcnair
3661,Memorial
3307,Mercer
3423,Merry Acres
3290,Metter
3615,Midland
3581,Midway
3325,Mill Creek
3598,Miller County
3411,Miller Grove
3273,Miller Magnet
3599,Mitchell County
3452,Model
4145,MONROE CO
3603,Montgomery County
3514,Moore
3604,Morgan County
3653,Morgan Road
3340,Morrow
3632,Moses
3555,Mossy Creek
3296,Mt Zion
3341,Mundys Mill
3654,Murphey
3315,Myers
3489,Needwood
3719,New Hope
3645,New Quitman County
3587,Newbern
3342,North Clayton
3458,North Forsyth
3515,North Gwinnett
3523,North Habersham
3530,North Hall
3718,North Whitfield
3556,Northside
3474,Northwestern
3256,Oak Hill
3625,Oconee County
3626,Oglethorpe County
3547,Ola
4122,Other
3459,Otwell
4133,P.B. RITCH
3369,Palmer
3249,Parks
3548,Patrick Henry
3475,Paul D West
3412,Peachtree
3600,Pelham City
3453,Pepperell
3557,Perry
3638,Pickens County
3639,Pierce County
3640,Pike County
3516,Pinckneyville
3588,Pine Grove
3655,Pine Hill
3370,Pine Mountain
3460,Piney Grove
3343,Pointe South
3282,Portal
3250,Price
3643,Pulaski County
3644,Putnam County
3646,Rabun County
3424,Radium Springs
3647,Randolph Clay
3413,Redan
3669,Rehoboth Road
3678,Reidsville
3476,Renaissance
3400,Renfroe
3344,Rex Mill
3508,Richard Hull
3616,Richards
3280,Richmond Hill
3477,Ridgeview
3301,Ringgold
3448,Rising Starr
4131,Risley
3478,River Trail
3345,Riverdale
3383,Riverside
3396,Riverview
3461,Riverwatch
3425,Robert A Cross
3346,Roberts
3642,Rockmart
3454,Rome
3701,Rossville
3617,Rothschild
3259,Russell
3274,Rutland
4144,SADDLE RIDGE
3289,Saint Marys
3414,Salem
3479,Sandtown
3480,Sandy Springs
3662,Schley County
3634,Scoggins
3663,Screven County
3656,Sego
3664,Seminole County
3347,Sequoyah
3415,Sequoyah
3517,Shiloh
3371,Simpson
3372,Smitha
3391,Smokey Road
3518,Snellville
3582,Snelson Golden
3704,Social Circle
3705,Social Circle
3492,Sonoraville East
3265,South Central
3439,South Effingham
3462,South Forsyth
3524,South Habersham
3531,South Hall
3633,South Paulding
3283,Southeast Bulloch
3426,Southside
3316,Southwest
3657,Spirit Creek
3672,Staley
3384,Stallings Island
3670,Stephens County
3416,Stephenson
3431,Stewart
3671,Stewart County
3549,Stockbridge
3417,Stone Mountain
3519,Summerour
3319,Summerville
3673,Sumter County
3251,Sutton
3441,Swainsboro
3520,Sweetwater
3252,Sylvan Hills
3710,T J Elder
3675,Taliaferro County
3373,Tapp
3679,Taylor County
3481,Taylor Road
3326,Teasley
3680,Telfair County
3297,Temple
3681,Terrell County
3683,Thomas County
3558,Thomson
3594,Thomson
3687,Toombs County
3688,Towns County
3689,Treutlen
3521,Trickum
3320,Trion
3418,Tucker
3433,Turner
3693,Turner County
3694,Twiggs County
3522,Twin Rivers
3695,Union County
3550,Union Grove
3697,Upson Lee
3589,Valdosta
3720,Valley Point
3618,Veterans Memorial
3623,Veterans Memorial
3463,Vickery Creek
3298,Villa Rica
3584,Walker Middle
3707,Ware County
3559,Warner Robins
3709,Warren County
3493,Washington
3723,Washington Wilkes
3708,Waycross
3275,Weaver
3482,Webb Bridge
3713,Webster County
3317,West Chatham
3532,West Hall
3565,West Jackson
3578,West Laurens
3260,Westside
3721,Westside
3714,Wheeler County
3715,White County
3449,Whitewater
3722,Wilcox County
3724,Wilkinson County
3284,William James
3376,Willie J Williams
3261,Winder Barrow
3483,Woodland
3551,Woodland
3266,Woodland At Euharlee
3327,Woodstock
3696,Woody Gap
3725,Worth County
3569,Wrens
3434,Yeager
3253,Young
3706,Youth Middle
