{
    "data": [
        {
            "id": "1001",
            "name": "วิ่งปลา PD(ห้องเย็นหน้า)",
            "type": "Rented",
            "truck_plate_no": "ทน 2345",
            "driver": "สมชัย"
        },
        {
            "id": "1002",
            "name": "วิ่งปลา PD(ห้องเย็นหลัง)",
            "type": "Rented",
            "truck_plate_no": "ห้องเย็นหลัง",
            "driver": "วันทนา"
        },
        {
            "id": "1003",
            "name": "วิ่งปลา PD(TUM3)",
            "type": "TUM",
            "truck_plate_no": "นร 4555",
            "driver": "วรรณา"
        },
        {
            "id": "1004",
            "name": "PCS TUM3",
            "type": "Rented",
            "truck_plate_no": "จก 6543",
            "driver": "สมชาย"
        },
        {
           "id": "1005",
            "name": "PT TUM3",
            "type": "TUM",
            "truck_plate_no": "กป 1122",
            "driver": "ณัฐวุฒิ"
        },
        {
            "id": "1006",
            "name": "IMG TUM3",
            "type": "Rented",
            "truck_plate_no": "นร 4434",
            "driver": "กันยา"
        }
    ],
    "draw": 0,
    "recordsTotal": 1,
    "recordsFiltered": 2
}