13,Fulton County West
14,Fulton County North
21,Atlanta North
22,Atlanta North
23,Atlanta North
24,Atlanta North
31,Atlanta Southwest
32,Atlanta Southeast
33,Fulton County South
41,DeKalb County East
42,DeKalb County East
43,DeKalb County East
51,DeKalb County West
52,DeKalb County West
53,Dekalb County West
61,Gwinnett County
62,Gwinnett County
63,Gwinnett County
64,Gwinnett County
65,Gwinnett County
66,Gwinnett County
71,Cobb County West
72,Cobb County West
73,Cobb County West
74,Cobb County West
75,Cobb County West
81,Cobb County East
82,Cobb County East
83,Cobb County East
91,Douglas County
100,Alabama
101,Rockdale County
102,Rockdale County
111,Cherokee County
112,Cherokee County
113,Cherokee County
114,Cherokee County
121,Dunwoody
131,Sandy Springs
132,Sandy Springs
141,Walton County
142,Walton County
151,Newton County
161,Clayton County
171,Fayette County
181,Coweta County
191,Paulding County
192,Paulding County
200,Florida
201,Bartow County
202,Bartow County
203,Bartow County
204,Bartow County
211,Henry County
221,Forsyth County
222,Forsyth County
223,Forsyth County
231,Carroll County
241,Butts County
251,Spalding County
261,Hall County
262,Hall County
263,Hall County
264,Hall County
265,Hall County
271,Dawson County
272,Dawson County
273,Dawson County
281,Banks County
291,Jackson County
292,Jackson County
293,Jackson County
300,North Carolina
301,Barrow County
302,Barrow County
311,Oconee County
321,Morgan County
331,Pickens County
332,Pickens County
341,Gordon County
342,Gordon County
351,Floyd Co (West Rome)
352,Floyd Co (Armuchee)
353,Floyd Co (Northeast)
354,Floyd Co (East Rome)
355,Floyd Co (South Rome)
356,Floyd Co (Downtown)
361,Polk County
371,Clarke County
381,Haralson County
391,Heard County
400,South Carolina
401,Troup County
411,Jasper County
421,Greene County
431,Putnam County
441,Lumpkin County
451,Rabun County
481,Habersham County
491,White County
500,Tennessee
501,Towns County
511,Meriwether County
521,Pike County
531,Lamar County
541,Monroe County
551,Upson County
556,Appling County
560,Atkinson County
564,Bacon County
569,Baker County
573,Baldwin County
577,Ben Hill County
581,Berrien County
585,Bibb County
589,Bleckley County
593,Brantley County
597,Brooks County
601,Bryan County
605,Bulloch County
609,Burke County
613,Calhoun County
617,Camden County
618,Camden County
619,Camden County
620,Camden County
621,Candler County
625,Catoosa County
629,Charlton County
633,Chatham County
637,Chattahoochee County
641,Chattooga County
645,Clay County
649,Clinch County
653,Coffee County
657,Colquitt County
661,Columbia County
665,Cook County
669,Crawford County
673,Crisp County
677,Dade County
681,Decatur County
685,Dodge County
689,Dooly County
693,Dougherty County
697,Early County
701,Echols County
705,Efﬁ ngham County
709,Elbert County
713,Emanuel County
717,Evans County
721,Fannin County
725,Franklin County
729,Gilmer County
733,Glascock County
737,Glynn County
741,Grady County
745,Hancock County
749,Harris County
753,Hart County
757,Houston County
761,Irwin County
765,Jeff Davis County
769,Jefferson County
773,Jenkins County
777,Johnson County
781,Jones County
785,Lanier County
789,Laurens County
793,Lee County
797,Liberty County
801,Lincoln County
805,Long County
809,Lowndes County
813,Macon County
817,Madison County
821,Marion County
825,McDufﬁ e County
829,McIntosh County
833,Miller County
837,Mitchell County
841,Montgomery County
845,Murray County
849,Muscogee County
853,Oglethorpe County
857,Peach County
861,Pierce County
865,Pulaski County
869,Quitman County
873,Randolph County
877,Richmond County
881,Schley County
885,Screven County
889,Seminole County
893,Stephens County
897,Stewart County
901,Sumter County
905,Talbot County
909,Taliaferro County
913,Tattnall County
917,Taylor County
921,Telfair County
925,Terrell County
929,Thomas County
933,Tift County
937,Toombs County
941,Treutlen County
945,Turner County
949,Twiggs County
953,Union County
957,Walker County
961,Ware County
965,Warren County
969,Washington County
973,Wayne County
977,Webster County
981,Wheeler County
985,Whitﬁ eld County
989,Wilcox County
993,Wilkes County
997,Wilkinson County
999,Worth County
