1,Aldine
2,Alief
3,Alvin
4,Anahuac
5,Angleton
6,Barbers Hill
7,Brazosport
8,Channelview
9,Clear Creek
10,Columbia-Brazoria
11,Conroe
12,Crosby
13,Cypress-Fairbanks
14,Damon
15,Danbury
16,Deer Park
17,Dickinson
18,East Chambers
19,Fort Bend
20,Friendswood
21,Galena Park
22,Galveston
23,Goose Creek
24,Hempstead
25,High Island
26,Hitchcock
27,Houston
28,Huffman
29,Humble
30,Katy
31,Kendleton
32,Klein
33,Lamar Consolidated
34,La Marque
35,La Porte
36,Magnolia
37,Montgomery
38,Needville
39,New Caney
40,North Forest
41,Pasadena
42,Pearland
43,Richmond State
44,Royal
45,Santa Fe
46,Sheldon
47,Splendora
48,Spring
49,Spring Branch
50,Stafford
51,Sweeny
52,Texas City
53,Tomball
54,Brazos
55,Waller
56,Willis
57,Crockett
58,Grapeland
59,Groveton
60,Kennard
61,Latexo
62,Lovelady
63,Trinity
64,Huntsville
65,Slocum
66,Cayuga
67,Frankston
68,Elkhart
69,La Poynor
70,Neches
71,Palestine
72,Westwood
73,Liberty
74,Dayton
99,Other
100,Cleveland
101,Coldspring-Oakhurst Consolidated
102,Tarkington
103,Livingston
104,Onalaska
105,New Waverly
106,Jacksonville
107,Hardin
108,Hull-Daisetta
109,Sealy
110,Hamshire Fannett
111,Austin
112,Del Valle
113,Eanes
114,Lago Vista
115,Lake Travis
116,Manor
117,Pflugerville
118,Coupland
119,Dripping Springs
120,Elgin
121,Hays Consolidated
122,Johnson City
123,Leander
124,Marble Falls
125,Round Rock
127,Northwest
128,Burton
129,Navasota
130,Shepherd
131,Normangee
132,Bay City
133,Tidehaven
134,Van Vleck
135,Anderson-Shiro
136,Bellville
137,Brenham
138,Goodrich
139,Kerrville
140,Boling
141,Comal
142,New Braunfels ISD
143,Beaumont
