{
    "data": [
        {
            "id": "10111",
            "tag_id": "0069",
            "load_status": " No",
            "current_location": "TUM2",
            "station": "PD2"
        }
    ],
    "draw": 0,
    "recordsTotal": 1,
    "recordsFiltered": 2
}