{
    "data": [
        {
            "id": "10111",
            "tag_id": "0068",
            "load_status": " yes",
            "current_location": "TUM3",
            "station": "PD3"
        }
    ],
    "draw": 0,
    "recordsTotal": 1,
    "recordsFiltered": 2
}