{
    "data": [
        {
            "id": "1001",
            "tag_id": "0068",
            "activity_name": " Un Loading",
            "location_name": "TUM3",
            "activity_time": "21/07/2016 11:12",
            "room_name": "B",
            "personal": "วิชาญ  คงศรี"
        },
        {
            "id": "1002",
            "tag_id": "0068",
            "activity_name": " Check-in",
            "location_name": "TUM1",
            "activity_time": "21/07/2016 11:12",
            "room_name": "JK",
            "personal": "สันติ เศวตวิมล"
        },
        {
            "id": "1003",
            "tag_id": "0068",
            "activity_name": "  Check-in",
            "location_name": "TUM3",
            "activity_time": "21/07/2016 11:12",
            "room_name": "PD3",
            "personal": "มาลินี  คงเจริญ"
        }
    ],
    "draw": 0,
    "recordsTotal": 1,
    "recordsFiltered": 2
}